week9/work1/simulation/qsim/week10_1.msim.vcd
$comment
	File created using the following command:
		vcd file week10_1.msim.vcd -direction
$end
$date
	Wed Nov 09 19:24:02 2022
$end
$version
	ModelSim Version 2020.1
$end
$timescale
	1ps
$end

$scope module Block4_vlg_vec_tst $end
$var reg 1 ! b0 $end
$var reg 1 " b1 $end
$var reg 1 # b2 $end
$var reg 1 $ b3 $end
$var wire 1 % a $end
$var wire 1 & b $end
$var wire 1 ' c $end
$var wire 1 ( d $end
$var wire 1 ) e $end
$var wire 1 * f $end
$var wire 1 + g $end

$scope module i1 $end
$var wire 1 , gnd $end
$var wire 1 - vcc $end
$var wire 1 . unknown $end
$var tri1 1 / devclrn $end
$var tri1 1 0 devpor $end
$var tri1 1 1 devoe $end
$var wire 1 2 b0~combout $end
$var wire 1 3 b3~combout $end
$var wire 1 4 b1~combout $end
$var wire 1 5 b2~combout $end
$var wire 1 6 inst21~0_combout $end
$var wire 1 7 inst23~combout $end
$var wire 1 8 inst25~combout $end
$var wire 1 9 inst28~0_combout $end
$var wire 1 : inst29~0_combout $end
$var wire 1 ; inst32~0_combout $end
$var wire 1 < inst35~0_combout $end
$upscope $end
$upscope $end
$enddefinitions $end
#0
$dumpvars
0!
0"
0#
0$
1%
1&
1'
1(
1)
1*
0+
0,
1-
x.
1/
10
11
02
03
04
05
16
17
18
19
1:
1;
0<
$end
#30000
1$
13
1<
1+
#70000
0$
03
0<
0+
#110000
1#
15
1<
0:
09
06
1+
0)
0(
0%
#190000
0#
05
0<
1:
19
16
0+
1)
1(
1%
#280000
1"
14
1<
0;
08
1+
0*
0'
#360000
0"
04
0<
1;
18
0+
1*
1'
#440000
1$
1"
13
14
1<
08
1+
0'
#480000
0$
0"
03
04
0<
18
0+
1'
