week6/work2/simulation/qsim/week6_2.msim.vcd
$comment
	File created using the following command:
		vcd file week6_2.msim.vcd -direction
$end
$date
	Tue Oct 10 16:23:09 2023
$end
$version
	ModelSim Version 2020.1
$end
$timescale
	1ps
$end

$scope module week6_2_vlg_vec_tst $end
$var reg 1 ! clk $end
$var reg 12 " keypad [11:0] $end
$var reg 1 # reset $end
$var wire 1 $ Dout [3] $end
$var wire 1 % Dout [2] $end
$var wire 1 & Dout [1] $end
$var wire 1 ' Dout [0] $end

$scope module i1 $end
$var wire 1 ( gnd $end
$var wire 1 ) vcc $end
$var wire 1 * unknown $end
$var tri1 1 + devclrn $end
$var tri1 1 , devpor $end
$var tri1 1 - devoe $end
$var wire 1 . inst|inst1|inst3~regout $end
$var wire 1 / inst|inst2|inst3~regout $end
$var wire 1 0 inst|inst2|inst2~regout $end
$var wire 1 1 inst|inst1|inst2~regout $end
$var wire 1 2 inst|inst1|inst1~regout $end
$var wire 1 3 inst|inst2|inst1~regout $end
$var wire 1 4 inst|inst2|inst~regout $end
$var wire 1 5 inst|inst1|inst~regout $end
$var wire 1 6 clk~combout $end
$var wire 1 7 reset~combout $end
$var wire 1 8 inst1|inst12121~0_combout $end
$var wire 1 9 inst1|inst12121~1_combout $end
$var wire 1 : inst1|inst12121~2_combout $end
$var wire 1 ; inst5|Selector3~0_combout $end
$var wire 1 < inst5|fstate.state4~regout $end
$var wire 1 = inst5|Equal0~0_combout $end
$var wire 1 > inst5|fstate.state5~regout $end
$var wire 1 ? inst5|Selector0~0_combout $end
$var wire 1 @ inst5|fstate.state1~regout $end
$var wire 1 A inst5|Selector1~0_combout $end
$var wire 1 B inst5|Selector1~1_combout $end
$var wire 1 C inst5|fstate.state2~regout $end
$var wire 1 D inst5|fstate.state3~regout $end
$var wire 1 E inst5|ce~0_combout $end
$var wire 1 F inst6|inst7~regout $end
$var wire 1 G inst6|inst8~regout $end
$var wire 1 H inst|inst33~combout $end
$var wire 1 I inst|inst32~combout $end
$var wire 1 J inst|inst25~combout $end
$var wire 1 K inst1|inst7~0 $end
$var wire 1 L inst|inst|inst3~regout $end
$var wire 1 M inst|inst26~combout $end
$var wire 1 N inst|inst20|$00000|auto_generated|result_node[3]~0 $end
$var wire 1 O inst|inst28~combout $end
$var wire 1 P inst|inst3|inst3~regout $end
$var wire 1 Q inst|inst27~combout $end
$var wire 1 R inst|inst20|$00000|auto_generated|result_node[3]~1 $end
$var wire 1 S inst1|inst12121~3_combout $end
$var wire 1 T inst1|inst6~0 $end
$var wire 1 U inst|inst3|inst2~regout $end
$var wire 1 V inst|inst|inst2~regout $end
$var wire 1 W inst|inst20|$00000|auto_generated|result_node[2]~2 $end
$var wire 1 X inst|inst20|$00000|auto_generated|result_node[2]~3 $end
$var wire 1 Y inst1|inst5~0_combout $end
$var wire 1 Z inst1|inst5~1 $end
$var wire 1 [ inst|inst|inst1~regout $end
$var wire 1 \ inst|inst20|$00000|auto_generated|result_node[1]~4 $end
$var wire 1 ] inst|inst3|inst1~regout $end
$var wire 1 ^ inst|inst20|$00000|auto_generated|result_node[1]~5 $end
$var wire 1 _ inst1|inst4~0 $end
$var wire 1 ` inst|inst3|inst~regout $end
$var wire 1 a inst|inst|inst~regout $end
$var wire 1 b inst|inst20|$00000|auto_generated|result_node[0]~6 $end
$var wire 1 c inst|inst20|$00000|auto_generated|result_node[0]~7 $end
$var wire 1 d keypad~combout [11] $end
$var wire 1 e keypad~combout [10] $end
$var wire 1 f keypad~combout [9] $end
$var wire 1 g keypad~combout [8] $end
$var wire 1 h keypad~combout [7] $end
$var wire 1 i keypad~combout [6] $end
$var wire 1 j keypad~combout [5] $end
$var wire 1 k keypad~combout [4] $end
$var wire 1 l keypad~combout [3] $end
$var wire 1 m keypad~combout [2] $end
$var wire 1 n keypad~combout [1] $end
$var wire 1 o keypad~combout [0] $end
$upscope $end
$upscope $end
$enddefinitions $end
#0
$dumpvars
0!
b0 "
1#
0'
0&
0%
0$
0(
1)
x*
1+
1,
1-
0.
0/
00
01
02
03
04
05
06
17
08
19
0:
0;
0<
0=
0>
0?
0@
0A
0B
0C
0D
0E
0F
0G
0H
0I
0J
0K
0L
0M
0N
0O
0P
0Q
0R
1S
0T
0U
0V
0W
0X
0Y
0Z
0[
0\
0]
0^
0_
0`
0a
0b
0c
0o
0n
0m
0l
0k
0j
0i
0h
0g
0f
0e
0d
$end
#10000
1!
16
#20000
b10000000000 "
0!
1e
06
#30000
1!
16
1C
1@
1B
#40000
0!
06
#50000
b0 "
1!
0e
16
#60000
b100000000 "
0!
1g
06
1K
18
1:
0B
#70000
1!
16
1D
0C
1J
1E
1A
#80000
0!
06
#90000
b0 "
1!
0g
16
0K
08
0:
1L
1F
0D
1C
1N
0J
1I
0A
0E
1B
1R
0N
0R
1$
0$
#100000
0!
06
#110000
1!
16
#120000
b1000000 "
0!
1i
06
1Y
0S
18
1Z
1T
1:
0B
#130000
1!
16
1D
0C
1M
0I
1E
1A
1N
1R
1$
#140000
0!
06
#150000
b0 "
1!
0i
16
0Y
1S
08
0Z
0T
0:
12
11
1G
0F
0D
1C
0M
1H
0A
0E
1B
0R
0N
0$
#160000
b100000 "
0!
1j
06
1T
09
1_
1:
0B
#170000
1!
16
1D
0C
1Q
0H
1E
1A
1N
1R
1$
#180000
0!
06
#190000
b0 "
1!
0j
16
0T
19
0_
0:
14
10
1F
0D
1C
0Q
1I
0A
1=
1H
0E
1B
1b
1\
1X
1W
0R
0X
1%
0$
0%
#200000
b10000000 "
0!
1h
06
1Y
1T
09
1Z
1_
1:
0B
#210000
1!
16
1D
0C
1O
0I
0H
1E
1c
0b
0\
1X
0W
1^
1R
0c
0^
0X
1'
1%
1&
1$
0'
0&
0%
#220000
0!
06
#230000
b0 "
1!
0h
16
0Y
0T
19
0Z
0_
0:
1`
1]
1U
0G
0F
0D
1<
0O
0=
0E
1;
#240000
0!
06
#250000
1!
16
#260000
b100000000000 "
0!
1d
06
0;
#270000
1!
16
1>
0<
1E
#280000
0!
06
#290000
b0 "
1!
0d
16
1F
1I
1\
1X
0N
1^
0R
1%
1&
0$
#300000
0!
06
#310000
1!
16
1G
0F
1H
0I
1b
0\
1W
0X
1c
0^
1X
0%
1'
0&
1%
#320000
0!
06
#330000
1!
16
1F
1I
1?
1=
1\
1N
1^
1&
#340000
0!
06
#350000
1!
16
0G
0F
0@
0>
0H
0?
0=
0I
0E
0b
0\
0W
1R
0c
0^
0X
1$
0'
0&
0%
#360000
0!
06
#370000
1!
16
#380000
0!
06
#390000
1!
16
#400000
0!
06
#410000
1!
16
#420000
0!
06
#430000
1!
16
#440000
0!
06
#450000
1!
16
#460000
0!
06
#470000
1!
16
#480000
0!
06
#490000
1!
16
#500000
0!
06
#510000
1!
16
#520000
0!
06
#530000
1!
16
#540000
0!
06
#550000
1!
16
#560000
0!
06
#570000
1!
16
#580000
0!
06
#590000
1!
16
#600000
0!
06
#610000
1!
16
#620000
0!
06
#630000
1!
16
#640000
0!
06
#650000
1!
16
#660000
0!
06
#670000
1!
16
#680000
0!
06
#690000
1!
16
#700000
0!
06
#710000
1!
16
#720000
0!
06
#730000
1!
16
#740000
0!
06
#750000
1!
16
#760000
0!
06
#770000
1!
16
#780000
0!
06
#790000
1!
16
#800000
0!
06
#810000
1!
16
#820000
0!
06
#830000
1!
16
#840000
0!
06
#850000
1!
16
#860000
0!
06
#870000
1!
16
#880000
0!
06
#890000
1!
16
#900000
0!
06
#910000
1!
16
#920000
0!
06
#930000
1!
16
#940000
0!
06
#950000
1!
16
#960000
0!
06
#970000
1!
16
#980000
0!
06
#990000
1!
16
