week5/work1/simulation/qsim/work1.msim.vcd
$comment
	File created using the following command:
		vcd file work1.msim.vcd -direction
$end
$date
	Mon Oct 02 19:17:59 2023
$end
$version
	ModelSim Version 2020.1
$end
$timescale
	1ps
$end

$scope module work1_vlg_vec_tst $end
$var reg 1 ! clk $end
$var reg 1 " rst_n $end
$var wire 1 # CNT100 [7] $end
$var wire 1 $ CNT100 [6] $end
$var wire 1 % CNT100 [5] $end
$var wire 1 & CNT100 [4] $end
$var wire 1 ' CNT100 [3] $end
$var wire 1 ( CNT100 [2] $end
$var wire 1 ) CNT100 [1] $end
$var wire 1 * CNT100 [0] $end

$scope module i1 $end
$var wire 1 + gnd $end
$var wire 1 , vcc $end
$var wire 1 - unknown $end
$var tri1 1 . devclrn $end
$var tri1 1 / devpor $end
$var tri1 1 0 devoe $end
$var wire 1 1 ~QUARTUS_CREATED_GND~I_combout $end
$var wire 1 2 clk~input_o $end
$var wire 1 3 clk~inputCLKENA0_outclk $end
$var wire 1 4 rst_n~input_o $end
$var wire 1 5 inst|A_b~DUPLICATE_q $end
$var wire 1 6 inst|D_b~q $end
$var wire 1 7 inst|D_b~0_combout $end
$var wire 1 8 inst|D_b~DUPLICATE_q $end
$var wire 1 9 inst|inst22~combout $end
$var wire 1 : inst|C_b~q $end
$var wire 1 ; inst|B_b~q $end
$var wire 1 < inst|B_b~0_combout $end
$var wire 1 = inst|B_b~DUPLICATE_q $end
$var wire 1 > inst|inst20~combout $end
$var wire 1 ? inst|A_b~q $end
$var wire 1 @ inst|C_b~DUPLICATE_q $end
$var wire 1 A inst5~combout $end
$var wire 1 B inst6~q $end
$var wire 1 C inst1|A_b~q $end
$var wire 1 D inst1|D_b~0_combout $end
$var wire 1 E inst1|D_b~feeder_combout $end
$var wire 1 F inst1|D_b~DUPLICATE_q $end
$var wire 1 G inst1|inst22~combout $end
$var wire 1 H inst1|C_b~feeder_combout $end
$var wire 1 I inst1|C_b~DUPLICATE_q $end
$var wire 1 J inst1|D_b~q $end
$var wire 1 K inst1|B_b~q $end
$var wire 1 L inst1|C_b~q $end
$var wire 1 M inst1|B_b~0_combout $end
$var wire 1 N inst1|B_b~DUPLICATE_q $end
$var wire 1 O inst1|inst20~combout $end
$var wire 1 P inst1|A_b~feeder_combout $end
$var wire 1 Q inst1|A_b~DUPLICATE_q $end
$upscope $end
$upscope $end
$enddefinitions $end
#0
$dumpvars
0!
1"
0*
0)
0(
0'
0&
0%
0$
0#
0+
1,
x-
1.
1/
10
01
02
03
14
05
06
17
08
09
0:
0;
0<
0=
0>
0?
0@
0A
0B
0C
1D
1E
0F
0G
0H
0I
0J
0K
0L
0M
0N
0O
0P
0Q
$end
#10000
1!
12
13
16
18
1*
07
19
#20000
0!
02
03
#30000
1!
12
13
1@
06
1:
08
0*
1)
17
#40000
0!
02
03
#50000
1!
12
13
16
18
1*
07
1<
09
#60000
0!
02
03
#70000
1!
12
13
0@
1;
06
1=
0:
08
0*
0)
1(
17
#80000
0!
02
03
#90000
1!
12
13
16
18
1*
07
19
#100000
0!
02
03
#110000
1!
12
13
1@
06
1:
08
0*
1)
17
#120000
0!
02
03
#130000
1!
12
13
16
18
1*
07
1>
0<
09
#140000
0!
02
03
#150000
1!
12
13
0@
1?
0;
06
0=
0:
08
15
1'
0*
0)
0(
17
#160000
0!
02
03
#170000
1!
12
13
16
18
1*
1A
07
0>
#180000
0!
02
03
#190000
1!
12
13
0?
06
1B
08
05
0'
0*
0A
17
1J
1F
1&
1G
0D
0E
1H
#200000
0!
02
03
#210000
1!
12
13
16
0B
18
1*
07
19
#220000
0!
02
03
#230000
1!
12
13
1@
06
1:
08
0*
1)
17
#240000
0!
02
03
#250000
1!
12
13
16
18
1*
07
1<
09
#260000
0!
02
03
#270000
1!
12
13
0@
1;
06
1=
0:
08
0*
0)
1(
17
#280000
0!
02
03
#290000
1!
12
13
16
18
1*
07
19
#300000
0!
02
03
#310000
1!
12
13
1@
06
1:
08
0*
1)
17
#320000
0!
02
03
#330000
1!
12
13
16
18
1*
07
1>
0<
09
#340000
0!
02
03
#350000
1!
12
13
0@
1?
0;
06
0=
0:
08
15
1'
0*
0)
0(
17
#360000
0!
02
03
#370000
1!
12
13
16
18
1*
1A
07
0>
#380000
0!
02
03
#390000
1!
12
13
0?
06
1B
08
05
0'
0*
0A
17
1L
0J
1I
0F
0&
1%
1D
1E
#400000
0!
02
03
#410000
1!
12
13
16
0B
18
1*
07
19
#420000
0!
02
03
#430000
1!
12
13
1@
06
1:
08
0*
1)
17
#440000
0!
02
03
#450000
1!
12
13
16
18
1*
07
1<
09
#460000
0!
02
03
#470000
1!
12
13
0@
1;
06
1=
0:
08
0*
0)
1(
17
#480000
0!
02
03
#490000
1!
12
13
16
18
1*
07
19
#500000
0!
02
03
#510000
1!
12
13
1@
06
1:
08
0*
1)
17
#520000
0!
02
03
#530000
1!
12
13
16
18
1*
07
1>
0<
09
#540000
0!
02
03
#550000
1!
12
13
0@
1?
0;
06
0=
0:
08
15
1'
0*
0)
0(
17
#560000
0!
02
03
#570000
1!
12
13
16
18
1*
1A
07
0>
#580000
0!
02
03
#590000
1!
12
13
0?
06
1B
08
05
0'
0*
0A
17
1J
1F
1&
1M
0G
0D
0E
0H
#600000
0!
02
03
#610000
1!
12
13
16
0B
18
1*
07
19
#620000
0!
02
03
#630000
1!
12
13
1@
06
1:
08
0*
1)
17
#640000
0!
02
03
#650000
1!
12
13
16
18
1*
07
1<
09
#660000
0!
02
03
#670000
1!
12
13
0@
1;
06
1=
0:
08
0*
0)
1(
17
#680000
0!
02
03
#690000
1!
12
13
16
18
1*
07
19
#700000
0!
02
03
#710000
1!
12
13
1@
06
1:
08
0*
1)
17
#720000
0!
02
03
#730000
1!
12
13
16
18
1*
07
1>
0<
09
#740000
0!
02
03
#750000
1!
12
13
0@
1?
0;
06
0=
0:
08
15
1'
0*
0)
0(
17
#760000
0!
02
03
#770000
1!
12
13
16
18
1*
1A
07
0>
#780000
0!
02
03
#790000
1!
12
13
0?
06
1B
08
05
0'
0*
0A
17
0L
1K
0J
1N
0I
0F
0&
0%
1$
1D
1E
#800000
0!
02
03
#810000
1!
12
13
16
0B
18
1*
07
19
#820000
0!
02
03
#830000
1!
12
13
1@
06
1:
08
0*
1)
17
#840000
0!
02
03
#850000
1!
12
13
16
18
1*
07
1<
09
#860000
0!
02
03
#870000
1!
12
13
0@
1;
06
1=
0:
08
0*
0)
1(
17
#880000
0!
02
03
#890000
1!
12
13
16
18
1*
07
19
#900000
0!
02
03
#910000
1!
12
13
1@
06
1:
08
0*
1)
17
#920000
0!
02
03
#930000
1!
12
13
16
18
1*
07
1>
0<
09
#940000
0!
02
03
#950000
1!
12
13
0@
1?
0;
06
0=
0:
08
15
1'
0*
0)
0(
17
#960000
0!
02
03
#970000
1!
12
13
16
18
1*
1A
07
0>
#980000
0!
02
03
#990000
1!
12
13
0?
06
1B
08
05
0'
0*
0A
17
1J
1F
1&
1G
0D
0E
1H
