termproject/simulation/qsim/termproject.msim.vcd
$comment
	File created using the following command:
		vcd file termproject.msim.vcd -direction
$end
$date
	Thu Nov 23 22:17:35 2023
$end
$version
	ModelSim Version 2020.1
$end
$timescale
	1ps
$end

$scope module hang_man_vlg_vec_tst $end
$var reg 1 ! clk $end
$var reg 1 " eight $end
$var reg 1 # five $end
$var reg 1 $ four $end
$var reg 1 % mode $end
$var reg 1 & nine $end
$var reg 1 ' one $end
$var reg 1 ( reset $end
$var reg 1 ) seven $end
$var reg 1 * sharp $end
$var reg 1 + six $end
$var reg 1 , star $end
$var reg 1 - three $end
$var reg 1 . two $end
$var reg 1 / zero $end
$var wire 1 0 alphabet_found $end
$var wire 1 1 alphabet_not_found $end
$var wire 1 2 out_alphabet [4] $end
$var wire 1 3 out_alphabet [3] $end
$var wire 1 4 out_alphabet [2] $end
$var wire 1 5 out_alphabet [1] $end
$var wire 1 6 out_alphabet [0] $end
$var wire 1 7 out_is_correct_0 $end
$var wire 1 8 out_is_correct_1 $end
$var wire 1 9 out_is_correct_2 $end
$var wire 1 : out_is_correct_3 $end
$var wire 1 ; out_is_correct_4 $end
$var wire 1 < out_is_correct_5 $end
$var wire 1 = out_is_correct_6 $end
$var wire 1 > out_is_correct_7 $end
$var wire 1 ? out_sharp $end
$var wire 1 @ out_star $end

$scope module i1 $end
$var wire 1 A gnd $end
$var wire 1 B vcc $end
$var wire 1 C unknown $end
$var tri1 1 D devclrn $end
$var tri1 1 E devpor $end
$var tri1 1 F devoe $end
$var wire 1 G ~QUARTUS_CREATED_GND~I_combout $end
$var wire 1 H sharp~input_o $end
$var wire 1 I star~input_o $end
$var wire 1 J clk~input_o $end
$var wire 1 K clk~inputCLKENA0_outclk $end
$var wire 1 L zero~input_o $end
$var wire 1 M nine~input_o $end
$var wire 1 N three~input_o $end
$var wire 1 O five~input_o $end
$var wire 1 P seven~input_o $end
$var wire 1 Q one~input_o $end
$var wire 1 R inst|inst1|inst4~0_combout $end
$var wire 1 S two~input_o $end
$var wire 1 T six~input_o $end
$var wire 1 U inst|inst1|inst5~0_combout $end
$var wire 1 V reset~input_o $end
$var wire 1 W four~input_o $end
$var wire 1 X inst|inst1|inst12121~0_combout $end
$var wire 1 Y eight~input_o $end
$var wire 1 Z inst|inst1|inst12121~combout $end
$var wire 1 [ inst|inst23|inst2~q $end
$var wire 1 \ inst|inst23|inst3~q $end
$var wire 1 ] inst|inst23|inst~combout $end
$var wire 1 ^ inst|inst24|inst1~q $end
$var wire 1 _ inst|inst25|inst1~combout $end
$var wire 1 ` inst|inst24|inst~q $end
$var wire 1 a inst|inst1|inst7~0_combout $end
$var wire 1 b inst|inst24|inst3~q $end
$var wire 1 c inst|inst3|inst7~0_combout $end
$var wire 1 d inst|inst1|inst6~0_combout $end
$var wire 1 e inst|inst24|inst2~q $end
$var wire 1 f inst|inst25|inst2~combout $end
$var wire 1 g inst|inst3|inst~0_combout $end
$var wire 1 h inst|inst3|inst10~combout $end
$var wire 1 i inst|inst3|inst~q $end
$var wire 1 j inst|inst25|inst~combout $end
$var wire 1 k inst|inst3|inst1~0_combout $end
$var wire 1 l inst|inst3|inst1~q $end
$var wire 1 m inst|inst27|WideOr2~0_combout $end
$var wire 1 n inst8|inst5~combout $end
$var wire 1 o mode~input_o $end
$var wire 1 p inst8|inst13|inst2~q $end
$var wire 1 q inst8|inst13|inst3~q $end
$var wire 1 r inst8|inst12~combout $end
$var wire 1 s inst8|inst|inst3~q $end
$var wire 1 t inst8|inst1|inst3~q $end
$var wire 1 u inst8|inst2|inst3~q $end
$var wire 1 v inst8|inst6|inst3~q $end
$var wire 1 w inst|inst27|WideOr1~0_combout $end
$var wire 1 x inst|inst27|WideOr1~1_combout $end
$var wire 1 y inst|inst27|WideOr1~2_combout $end
$var wire 1 z inst8|inst|inst4~q $end
$var wire 1 { inst8|inst1|inst4~q $end
$var wire 1 | inst8|inst2|inst4~q $end
$var wire 1 } inst8|inst6|inst4~q $end
$var wire 1 ~ inst9|inst10|inst4~combout $end
$var wire 1 !! inst|inst27|WideOr0~0_combout $end
$var wire 1 "! inst8|inst|inst9~q $end
$var wire 1 #! inst8|inst1|inst9~q $end
$var wire 1 $! inst8|inst2|inst9~q $end
$var wire 1 %! inst8|inst6|inst9~q $end
$var wire 1 &! inst9|inst10|inst6~combout $end
$var wire 1 '! inst|inst27|WideOr3~0_combout $end
$var wire 1 (! inst|inst27|WideOr4~0_combout $end
$var wire 1 )! inst8|inst|inst1~q $end
$var wire 1 *! inst8|inst1|inst1~q $end
$var wire 1 +! inst8|inst2|inst1~q $end
$var wire 1 ,! inst8|inst6|inst1~q $end
$var wire 1 -! inst8|inst|inst2~q $end
$var wire 1 .! inst8|inst1|inst2~q $end
$var wire 1 /! inst8|inst2|inst2~q $end
$var wire 1 0! inst8|inst6|inst2~q $end
$var wire 1 1! inst9|inst30~0_combout $end
$var wire 1 2! inst9|inst11~0_combout $end
$var wire 1 3! inst9|inst11~q $end
$var wire 1 4! inst10|inst13|inst2~q $end
$var wire 1 5! inst10|inst13|inst3~q $end
$var wire 1 6! inst9|inst3|inst4~combout $end
$var wire 1 7! inst9|inst3|inst6~combout $end
$var wire 1 8! inst9|inst28~0_combout $end
$var wire 1 9! inst9|inst4~0_combout $end
$var wire 1 :! inst9|inst4~q $end
$var wire 1 ;! inst10|inst19|inst2~q $end
$var wire 1 <! inst10|inst19|inst3~q $end
$var wire 1 =! inst10|inst2~1_combout $end
$var wire 1 >! inst8|inst7|inst3~q $end
$var wire 1 ?! inst8|inst8|inst3~q $end
$var wire 1 @! inst8|inst7|inst9~q $end
$var wire 1 A! inst8|inst8|inst9~q $end
$var wire 1 B! inst9|inst15|inst6~combout $end
$var wire 1 C! inst8|inst7|inst4~q $end
$var wire 1 D! inst8|inst8|inst4~q $end
$var wire 1 E! inst9|inst15|inst4~combout $end
$var wire 1 F! inst8|inst7|inst1~q $end
$var wire 1 G! inst8|inst8|inst1~q $end
$var wire 1 H! inst8|inst7|inst2~q $end
$var wire 1 I! inst8|inst8|inst2~q $end
$var wire 1 J! inst9|inst32~0_combout $end
$var wire 1 K! inst9|inst17~0_combout $end
$var wire 1 L! inst9|inst17~q $end
$var wire 1 M! inst10|inst15|inst2~q $end
$var wire 1 N! inst9|inst7|inst6~combout $end
$var wire 1 O! inst9|inst7|inst4~combout $end
$var wire 1 P! inst9|inst29~0_combout $end
$var wire 1 Q! inst9|inst8~0_combout $end
$var wire 1 R! inst9|inst8~q $end
$var wire 1 S! inst10|inst|inst2~q $end
$var wire 1 T! inst10|inst|inst3~q $end
$var wire 1 U! inst9|inst|inst4~combout $end
$var wire 1 V! inst9|inst|inst6~combout $end
$var wire 1 W! inst9|inst27~0_combout $end
$var wire 1 X! inst9|inst2~0_combout $end
$var wire 1 Y! inst9|inst2~q $end
$var wire 1 Z! inst10|inst18|inst2~feeder_combout $end
$var wire 1 [! inst10|inst18|inst2~q $end
$var wire 1 \! inst10|inst18|inst3~q $end
$var wire 1 ]! inst10|inst2~0_combout $end
$var wire 1 ^! inst10|inst15|inst3~feeder_combout $end
$var wire 1 _! inst10|inst15|inst3~q $end
$var wire 1 `! inst8|inst9|inst3~q $end
$var wire 1 a! inst8|inst10|inst3~q $end
$var wire 1 b! inst8|inst9|inst9~q $end
$var wire 1 c! inst8|inst10|inst9~q $end
$var wire 1 d! inst9|inst22|inst6~combout $end
$var wire 1 e! inst8|inst9|inst4~q $end
$var wire 1 f! inst8|inst10|inst4~q $end
$var wire 1 g! inst9|inst22|inst4~combout $end
$var wire 1 h! inst8|inst9|inst1~q $end
$var wire 1 i! inst8|inst10|inst1~q $end
$var wire 1 j! inst8|inst9|inst2~q $end
$var wire 1 k! inst8|inst10|inst2~q $end
$var wire 1 l! inst9|inst34~0_combout $end
$var wire 1 m! inst9|inst23~0_combout $end
$var wire 1 n! inst9|inst23~q $end
$var wire 1 o! inst10|inst17|inst2~feeder_combout $end
$var wire 1 p! inst10|inst17|inst2~q $end
$var wire 1 q! inst10|inst17|inst3~q $end
$var wire 1 r! inst9|inst31~0_combout $end
$var wire 1 s! inst9|inst16|inst6~combout $end
$var wire 1 t! inst9|inst16|inst4~combout $end
$var wire 1 u! inst9|inst13~0_combout $end
$var wire 1 v! inst9|inst13~q $end
$var wire 1 w! inst10|inst14|inst2~q $end
$var wire 1 x! inst9|inst19|inst4~combout $end
$var wire 1 y! inst9|inst19|inst6~combout $end
$var wire 1 z! inst9|inst33~0_combout $end
$var wire 1 {! inst9|inst20~0_combout $end
$var wire 1 |! inst9|inst20~q $end
$var wire 1 }! inst10|inst16|inst2~q $end
$var wire 1 ~! inst10|inst16|inst3~q $end
$var wire 1 !" inst10|inst14|inst3~q $end
$var wire 1 "" inst10|inst2~2_combout $end
$var wire 1 #" inst10|inst2~3_combout $end
$var wire 1 $" inst10|inst23~combout $end
$var wire 1 %" inst10|inst9|inst2~q $end
$var wire 1 &" inst10|inst9|inst3~q $end
$var wire 1 '" inst10|inst9|inst~combout $end
$var wire 1 (" inst10|inst2~q $end
$var wire 1 )" inst10|inst12~q $end
$var wire 1 *" inst10|inst11~combout $end
$var wire 1 +" inst10|inst1~combout $end
$upscope $end
$upscope $end
$enddefinitions $end
#0
$dumpvars
0!
0"
0#
0$
0%
0&
0'
1(
0)
0*
0+
0,
0-
0.
0/
00
01
06
05
04
03
02
07
08
09
0:
0;
0<
0=
0>
0?
0@
0A
1B
xC
1D
1E
1F
0G
0H
0I
0J
0K
0L
0M
0N
0O
0P
0Q
0R
0S
0T
0U
1V
0W
1X
0Y
0Z
0[
0\
0]
0^
0_
0`
0a
0b
0c
0d
0e
0f
0g
0h
0i
0j
0k
0l
0m
0n
0o
0p
0q
0r
0s
0t
0u
0v
0w
1x
0y
0z
0{
0|
0}
0~
0!!
0"!
0#!
0$!
0%!
0&!
0'!
0(!
0)!
0*!
0+!
0,!
0-!
0.!
0/!
00!
01!
02!
03!
04!
05!
06!
07!
08!
09!
0:!
0;!
0<!
0=!
0>!
0?!
0@!
0A!
0B!
0C!
0D!
0E!
0F!
0G!
0H!
0I!
0J!
0K!
0L!
0M!
0N!
0O!
0P!
0Q!
0R!
0S!
0T!
0U!
0V!
0W!
0X!
0Y!
0Z!
0[!
0\!
1]!
0^!
0_!
0`!
0a!
0b!
0c!
0d!
0e!
0f!
0g!
0h!
0i!
0j!
0k!
0l!
0m!
0n!
0o!
0p!
0q!
0r!
0s!
0t!
0u!
0v!
0w!
0x!
0y!
0z!
0{!
0|!
0}!
0~!
0!"
1""
0#"
0$"
0%"
0&"
0'"
0("
0)"
0*"
0+"
$end
#5000
1!
1J
1K
#10000
1.
0!
1S
0J
0K
1_
1Z
1U
#15000
1!
1J
1K
1[
1c
1]
#20000
0!
0J
0K
#25000
1!
1J
1K
1^
1\
0c
0]
0x
0_
1(!
16
#30000
0!
0J
0K
#35000
1!
1J
1K
#40000
0.
0!
0S
0J
0K
1_
0Z
0U
#45000
1!
1J
1K
0[
#50000
0!
0J
0K
#55000
1!
1J
1K
0\
#60000
1.
0!
1S
0J
0K
0_
1Z
1U
#65000
1!
1J
1K
1[
1c
1]
1g
#70000
0!
0J
0K
#75000
1!
1J
1K
1i
1\
0c
0]
0(!
1'!
1k
0g
15
06
0k
1g
#80000
0!
0J
0K
#85000
1!
1J
1K
#90000
0.
0!
0S
0J
0K
1_
0Z
0U
#95000
1!
1J
1K
0[
#100000
0!
0J
0K
#105000
1!
1J
1K
0\
#110000
1,
0!
0J
0K
1I
1@
#115000
1!
1J
1K
1p
1r
#120000
0!
0J
0K
#125000
1!
1J
1K
1)!
1q
0r
#130000
0!
0J
0K
#135000
1!
1J
1K
#140000
0,
0!
0J
0K
0I
0@
#145000
1!
1J
1K
0p
#150000
0!
0J
0K
#155000
1!
1J
1K
0q
#160000
1.
0!
1S
0J
0K
0_
1Z
1U
#165000
1!
1J
1K
1[
1c
1]
1k
0g
#170000
0!
0J
0K
#175000
1!
1J
1K
1l
0i
1\
0c
0]
1(!
1g
16
0g
#180000
0!
0J
0K
#185000
1!
1J
1K
#190000
0.
0!
0S
0J
0K
1_
0Z
0U
#195000
1!
1J
1K
0[
#200000
0!
0J
0K
#205000
1!
1J
1K
0\
#210000
1.
0!
1S
0J
0K
0_
1Z
1U
#215000
1!
1J
1K
1[
1c
1]
1g
#220000
0!
0J
0K
#225000
1!
1J
1K
1i
1\
0c
0]
0k
0g
1k
1g
#230000
0!
0J
0K
#235000
1!
1J
1K
#240000
0.
0!
0S
0J
0K
1_
0Z
0U
#245000
1!
1J
1K
0[
#250000
0!
0J
0K
#255000
1!
1J
1K
0\
#260000
1.
0!
1S
0J
0K
0_
1Z
1U
#265000
1!
1J
1K
1[
1c
1]
0k
0g
#270000
0!
0J
0K
#275000
1!
1J
1K
0l
0i
1\
0c
0]
0'!
1g
05
0g
#280000
0!
0J
0K
#285000
1!
1J
1K
#290000
0.
0!
0S
0J
0K
1_
0Z
0U
#295000
1!
1J
1K
0[
#300000
0!
0J
0K
#305000
1!
1J
1K
0\
#310000
1,
0!
0J
0K
1I
1@
#315000
1!
1J
1K
1p
1r
#320000
0!
0J
0K
#325000
1!
1J
1K
1-!
1*!
0)!
1q
0r
#330000
0!
0J
0K
#335000
1!
1J
1K
#340000
0,
0!
0J
0K
0I
0@
#345000
1!
1J
1K
0p
#350000
0!
0J
0K
#355000
1!
1J
1K
0q
#360000
0!
0J
0K
#365000
1!
1J
1K
#370000
1%
0!
1o
0J
0K
#375000
1!
1J
1K
#380000
0!
0J
0K
#385000
1!
1J
1K
#390000
1.
0!
1S
0J
0K
0_
1Z
1U
#395000
1!
1J
1K
1[
1c
1]
1g
#400000
0!
0J
0K
#405000
1!
1J
1K
1i
1\
0c
0]
0(!
1'!
1k
0g
15
06
0k
1g
#410000
0!
0J
0K
#415000
1!
1J
1K
#420000
0.
0!
0S
0J
0K
1_
0Z
0U
#425000
1!
1J
1K
0[
#430000
0!
0J
0K
#435000
1!
1J
1K
0\
#440000
1.
0!
1S
0J
0K
0_
1Z
1U
#445000
1!
1J
1K
1[
1c
1]
1k
0g
#450000
0!
0J
0K
#455000
1!
1J
1K
1l
0i
1\
0c
0]
1(!
1g
16
0g
#460000
0!
0J
0K
#465000
1!
1J
1K
#470000
0.
0!
0S
0J
0K
1_
0Z
0U
#475000
1!
1J
1K
0[
#480000
0!
0J
0K
#485000
1!
1J
1K
0\
#490000
1.
0!
1S
0J
0K
0_
1Z
1U
#495000
1!
1J
1K
1[
1c
1]
1g
#500000
0!
0J
0K
#505000
1!
1J
1K
1i
1\
0c
0]
0k
0g
1k
1g
#510000
0!
0J
0K
#515000
1!
1J
1K
#520000
0.
0!
0S
0J
0K
1_
0Z
0U
#525000
1!
1J
1K
0[
#530000
0!
0J
0K
#535000
1!
1J
1K
0\
#540000
1,
0!
0J
0K
1I
1@
1$"
#545000
1!
1J
1K
1%"
1p
#550000
0!
0J
0K
#555000
1!
1J
1K
1&"
1q
#560000
0!
0J
0K
#565000
1!
1J
1K
#570000
0,
0!
0J
0K
0I
0@
0$"
#575000
1!
1J
1K
0%"
0p
1'"
1+"
11
#580000
0!
0J
0K
#585000
1!
1J
1K
0&"
0q
0'"
0+"
01
#590000
1'
0!
1Q
0J
0K
1h
0X
1R
1j
1Z
0i
0l
0'!
0k
0g
05
#595000
1!
1J
1K
1[
1c
1]
#600000
0!
0J
0K
#605000
1!
1J
1K
1`
0^
1\
0c
0]
0_
0j
0(!
06
#610000
0!
0J
0K
#615000
1!
1J
1K
#620000
0'
0!
0Q
0J
0K
0h
1X
0R
1j
0Z
#625000
1!
1J
1K
0[
#630000
0!
0J
0K
#635000
1!
1J
1K
0\
#640000
1.
0!
1S
0J
0K
1_
1Z
1U
#645000
1!
1J
1K
1[
1c
1]
#650000
0!
0J
0K
#655000
1!
1J
1K
0`
1^
1\
0c
0]
0_
0j
1(!
16
#660000
0!
0J
0K
#665000
1!
1J
1K
#670000
0.
0!
0S
0J
0K
1_
0Z
0U
#675000
1!
1J
1K
0[
#680000
0!
0J
0K
#685000
1!
1J
1K
0\
#690000
1,
0!
0J
0K
1I
1@
1W!
1$"
1X!
#695000
1!
1J
1K
1%"
1p
1Y!
17
1Z!
#700000
0!
0J
0K
#705000
1!
1J
1K
1&"
1[!
1q
0]!
1#"
#710000
0!
0J
0K
#715000
1!
1J
1K
1("
1\!
#720000
0,
0!
0J
0K
0I
0@
0W!
0$"
#725000
1!
1J
1K
1)"
0%"
0p
1'"
1*"
10
0("
1]!
0#"
#730000
0!
0J
0K
#735000
1!
1J
1K
0)"
0&"
0q
0'"
0*"
00
#740000
0!
0J
0K
#745000
1!
1J
1K
#750000
0!
0J
0K
#755000
1!
1J
1K
#760000
0!
0J
0K
#765000
1!
1J
1K
#770000
0!
0J
0K
#775000
1!
1J
1K
#780000
0!
0J
0K
#785000
1!
1J
1K
#790000
0!
0J
0K
#795000
1!
1J
1K
#800000
0!
0J
0K
#805000
1!
1J
1K
#810000
0!
0J
0K
#815000
1!
1J
1K
#820000
0!
0J
0K
#825000
1!
1J
1K
#830000
0!
0J
0K
#835000
1!
1J
1K
#840000
0!
0J
0K
#845000
1!
1J
1K
#850000
0!
0J
0K
#855000
1!
1J
1K
#860000
0!
0J
0K
#865000
1!
1J
1K
#870000
0!
0J
0K
#875000
1!
1J
1K
#880000
0!
0J
0K
#885000
1!
1J
1K
#890000
0!
0J
0K
#895000
1!
1J
1K
#900000
0!
0J
0K
#905000
1!
1J
1K
#910000
0!
0J
0K
#915000
1!
1J
1K
#920000
0!
0J
0K
#925000
1!
1J
1K
#930000
0!
0J
0K
#935000
1!
1J
1K
#940000
0!
0J
0K
#945000
1!
1J
1K
#950000
0!
0J
0K
#955000
1!
1J
1K
#960000
0!
0J
0K
#965000
1!
1J
1K
#970000
0!
0J
0K
#975000
1!
1J
1K
#980000
0!
0J
0K
#985000
1!
1J
1K
#990000
0!
0J
0K
#995000
1!
1J
1K
