termproject/simulation/qsim/termproject.msim.vcd
$comment
	File created using the following command:
		vcd file termproject.msim.vcd -direction
$end
$date
	Thu Nov 30 23:37:21 2023
$end
$version
	ModelSim Version 2020.1
$end
$timescale
	1ps
$end

$scope module sound_controller_vlg_vec_tst $end
$var reg 1 ! alphabet_found $end
$var reg 1 " alphabet_not_found $end
$var reg 1 # clk $end
$var reg 1 $ game_over $end
$var reg 1 % game_win $end
$var reg 1 & reset $end
$var wire 1 ' out_address [2] $end
$var wire 1 ( out_address [1] $end
$var wire 1 ) out_address [0] $end
$var wire 1 * piezo $end

$scope module i1 $end
$var wire 1 + gnd $end
$var wire 1 , vcc $end
$var wire 1 - unknown $end
$var tri1 1 . devclrn $end
$var tri1 1 / devpor $end
$var tri1 1 0 devoe $end
$var wire 1 1 ~QUARTUS_CREATED_GND~I_combout $end
$var wire 1 2 clk~input_o $end
$var wire 1 3 clk~inputCLKENA0_outclk $end
$var wire 1 4 reset~input_o $end
$var wire 1 5 inst14|Add0~73_sumout $end
$var wire 1 6 inst14|LessThan0~2_combout $end
$var wire 1 7 inst14|Add0~6 $end
$var wire 1 8 inst14|Add0~17_sumout $end
$var wire 1 9 inst14|cnt[19]~DUPLICATE_q $end
$var wire 1 : inst14|Add0~18 $end
$var wire 1 ; inst14|Add0~9_sumout $end
$var wire 1 < inst14|LessThan0~0_combout $end
$var wire 1 = inst14|cnt[3]~DUPLICATE_q $end
$var wire 1 > inst14|cnt[2]~DUPLICATE_q $end
$var wire 1 ? inst14|LessThan0~3_combout $end
$var wire 1 @ inst14|LessThan0~1_combout $end
$var wire 1 A inst14|LessThan0~4_combout $end
$var wire 1 B inst14|Add0~74 $end
$var wire 1 C inst14|Add0~69_sumout $end
$var wire 1 D inst14|cnt[1]~DUPLICATE_q $end
$var wire 1 E inst14|Add0~70 $end
$var wire 1 F inst14|Add0~65_sumout $end
$var wire 1 G inst14|Add0~66 $end
$var wire 1 H inst14|Add0~77_sumout $end
$var wire 1 I inst14|Add0~78 $end
$var wire 1 J inst14|Add0~25_sumout $end
$var wire 1 K inst14|Add0~26 $end
$var wire 1 L inst14|Add0~29_sumout $end
$var wire 1 M inst14|Add0~30 $end
$var wire 1 N inst14|Add0~37_sumout $end
$var wire 1 O inst14|Add0~38 $end
$var wire 1 P inst14|Add0~33_sumout $end
$var wire 1 Q inst14|Add0~34 $end
$var wire 1 R inst14|Add0~41_sumout $end
$var wire 1 S inst14|Add0~42 $end
$var wire 1 T inst14|Add0~1_sumout $end
$var wire 1 U inst14|cnt[9]~DUPLICATE_q $end
$var wire 1 V inst14|Add0~2 $end
$var wire 1 W inst14|Add0~45_sumout $end
$var wire 1 X inst14|cnt[10]~DUPLICATE_q $end
$var wire 1 Y inst14|Add0~46 $end
$var wire 1 Z inst14|Add0~49_sumout $end
$var wire 1 [ inst14|cnt[11]~DUPLICATE_q $end
$var wire 1 \ inst14|Add0~50 $end
$var wire 1 ] inst14|Add0~21_sumout $end
$var wire 1 ^ inst14|Add0~22 $end
$var wire 1 _ inst14|Add0~53_sumout $end
$var wire 1 ` inst14|Add0~54 $end
$var wire 1 a inst14|Add0~57_sumout $end
$var wire 1 b inst14|Add0~58 $end
$var wire 1 c inst14|Add0~61_sumout $end
$var wire 1 d inst14|Add0~62 $end
$var wire 1 e inst14|Add0~13_sumout $end
$var wire 1 f inst14|Add0~14 $end
$var wire 1 g inst14|Add0~5_sumout $end
$var wire 1 h inst14|LessThan1~0_combout $end
$var wire 1 i inst14|LessThan1~1_combout $end
$var wire 1 j inst14|buff~q $end
$var wire 1 k alphabet_not_found~input_o $end
$var wire 1 l game_win~input_o $end
$var wire 1 m alphabet_found~input_o $end
$var wire 1 n game_over~input_o $end
$var wire 1 o inst5|index_gen|index~2_combout $end
$var wire 1 p inst5|Equal0~0_combout $end
$var wire 1 q inst5|triggered~0_combout $end
$var wire 1 r inst5|triggered~q $end
$var wire 1 s inst5|index_gen|index~1_combout $end
$var wire 1 t inst5|index_gen|index~0_combout $end
$var wire 1 u inst5|triggered1~0_combout $end
$var wire 1 v inst5|triggered1~q $end
$var wire 1 w inst5|triggered0~0_combout $end
$var wire 1 x inst5|triggered0~q $end
$var wire 1 y inst5|address~3_combout $end
$var wire 1 z inst5|triggered3~0_combout $end
$var wire 1 { inst5|triggered3~1_combout $end
$var wire 1 | inst5|triggered3~q $end
$var wire 1 } inst5|triggered2~0_combout $end
$var wire 1 ~ inst5|triggered2~q $end
$var wire 1 !! inst5|address~0_combout $end
$var wire 1 "! inst5|address~1_combout $end
$var wire 1 #! inst5|address~2_combout $end
$var wire 1 $! inst2|Add0~77_sumout $end
$var wire 1 %! inst2|Add0~78 $end
$var wire 1 &! inst2|Add0~73_sumout $end
$var wire 1 '! inst2|Add0~74 $end
$var wire 1 (! inst2|Add0~69_sumout $end
$var wire 1 )! inst2|Add0~70 $end
$var wire 1 *! inst2|Add0~65_sumout $end
$var wire 1 +! inst2|Add0~66 $end
$var wire 1 ,! inst2|Add0~13_sumout $end
$var wire 1 -! inst2|Add0~14 $end
$var wire 1 .! inst2|Add0~21_sumout $end
$var wire 1 /! inst2|Add0~22 $end
$var wire 1 0! inst2|Add0~17_sumout $end
$var wire 1 1! inst2|cnt[6]~DUPLICATE_q $end
$var wire 1 2! inst2|Add0~18 $end
$var wire 1 3! inst2|Add0~9_sumout $end
$var wire 1 4! inst2|cnt[7]~DUPLICATE_q $end
$var wire 1 5! inst2|Add0~10 $end
$var wire 1 6! inst2|Add0~29_sumout $end
$var wire 1 7! inst2|Add0~30 $end
$var wire 1 8! inst2|Add0~25_sumout $end
$var wire 1 9! inst2|LessThan0~0_combout $end
$var wire 1 :! inst2|cnt[10]~DUPLICATE_q $end
$var wire 1 ;! inst2|Add0~26 $end
$var wire 1 <! inst2|Add0~5_sumout $end
$var wire 1 =! inst2|LessThan0~1_combout $end
$var wire 1 >! inst2|Add0~6 $end
$var wire 1 ?! inst2|Add0~2 $end
$var wire 1 @! inst2|Add0~57_sumout $end
$var wire 1 A! inst2|Add0~58 $end
$var wire 1 B! inst2|Add0~53_sumout $end
$var wire 1 C! inst2|Add0~54 $end
$var wire 1 D! inst2|Add0~49_sumout $end
$var wire 1 E! inst2|Add0~50 $end
$var wire 1 F! inst2|Add0~45_sumout $end
$var wire 1 G! inst2|Add0~46 $end
$var wire 1 H! inst2|Add0~41_sumout $end
$var wire 1 I! inst2|Add0~42 $end
$var wire 1 J! inst2|Add0~33_sumout $end
$var wire 1 K! inst2|Add0~34 $end
$var wire 1 L! inst2|Add0~61_sumout $end
$var wire 1 M! inst2|Add0~62 $end
$var wire 1 N! inst2|Add0~37_sumout $end
$var wire 1 O! inst2|LessThan1~1_combout $end
$var wire 1 P! inst2|LessThan1~3_combout $end
$var wire 1 Q! inst2|cnt[16]~0_combout $end
$var wire 1 R! inst2|cnt[11]~DUPLICATE_q $end
$var wire 1 S! inst2|Add0~1_sumout $end
$var wire 1 T! inst2|LessThan1~0_combout $end
$var wire 1 U! inst2|LessThan1~2_combout $end
$var wire 1 V! inst2|buff~q $end
$var wire 1 W! inst3|Add0~37_sumout $end
$var wire 1 X! inst3|Add0~38 $end
$var wire 1 Y! inst3|Add0~41_sumout $end
$var wire 1 Z! inst3|Add0~42 $end
$var wire 1 [! inst3|Add0~33_sumout $end
$var wire 1 \! inst3|Add0~34 $end
$var wire 1 ]! inst3|Add0~29_sumout $end
$var wire 1 ^! inst3|Add0~30 $end
$var wire 1 _! inst3|Add0~25_sumout $end
$var wire 1 `! inst3|Add0~26 $end
$var wire 1 a! inst3|Add0~21_sumout $end
$var wire 1 b! inst3|Add0~22 $end
$var wire 1 c! inst3|Add0~17_sumout $end
$var wire 1 d! inst3|cnt[6]~DUPLICATE_q $end
$var wire 1 e! inst3|Add0~18 $end
$var wire 1 f! inst3|Add0~13_sumout $end
$var wire 1 g! inst3|cnt[7]~DUPLICATE_q $end
$var wire 1 h! inst3|Add0~14 $end
$var wire 1 i! inst3|Add0~9_sumout $end
$var wire 1 j! inst3|cnt[8]~DUPLICATE_q $end
$var wire 1 k! inst3|Add0~10 $end
$var wire 1 l! inst3|Add0~5_sumout $end
$var wire 1 m! inst3|cnt[9]~DUPLICATE_q $end
$var wire 1 n! inst3|Add0~6 $end
$var wire 1 o! inst3|Add0~1_sumout $end
$var wire 1 p! inst3|Add0~2 $end
$var wire 1 q! inst3|Add0~46 $end
$var wire 1 r! inst3|Add0~77_sumout $end
$var wire 1 s! inst3|cnt[12]~feeder_combout $end
$var wire 1 t! inst3|Add0~78 $end
$var wire 1 u! inst3|Add0~65_sumout $end
$var wire 1 v! inst3|Add0~66 $end
$var wire 1 w! inst3|Add0~57_sumout $end
$var wire 1 x! inst3|cnt[14]~DUPLICATE_q $end
$var wire 1 y! inst3|Add0~58 $end
$var wire 1 z! inst3|Add0~53_sumout $end
$var wire 1 {! inst3|cnt[15]~DUPLICATE_q $end
$var wire 1 |! inst3|Add0~54 $end
$var wire 1 }! inst3|Add0~49_sumout $end
$var wire 1 ~! inst3|cnt[19]~DUPLICATE_q $end
$var wire 1 !" inst3|Add0~50 $end
$var wire 1 "" inst3|Add0~73_sumout $end
$var wire 1 #" inst3|Add0~74 $end
$var wire 1 $" inst3|Add0~69_sumout $end
$var wire 1 %" inst3|Add0~70 $end
$var wire 1 &" inst3|Add0~61_sumout $end
$var wire 1 '" inst3|LessThan1~2_combout $end
$var wire 1 (" inst3|LessThan1~3_combout $end
$var wire 1 )" inst3|cnt[3]~DUPLICATE_q $end
$var wire 1 *" inst3|cnt[4]~DUPLICATE_q $end
$var wire 1 +" inst3|cnt[1]~DUPLICATE_q $end
$var wire 1 ," inst3|cnt[5]~DUPLICATE_q $end
$var wire 1 -" inst3|cnt[13]~3_combout $end
$var wire 1 ." inst3|cnt[13]~1_combout $end
$var wire 1 /" inst3|cnt[13]~2_combout $end
$var wire 1 0" inst3|cnt[11]~DUPLICATE_q $end
$var wire 1 1" inst3|Add0~45_sumout $end
$var wire 1 2" inst3|cnt[0]~DUPLICATE_q $end
$var wire 1 3" inst3|LessThan1~0_combout $end
$var wire 1 4" inst3|cnt[13]~0_combout $end
$var wire 1 5" inst3|LessThan1~1_combout $end
$var wire 1 6" inst3|LessThan1~4_combout $end
$var wire 1 7" inst3|buff~q $end
$var wire 1 8" inst4|Add0~17_sumout $end
$var wire 1 9" inst4|Add0~66 $end
$var wire 1 :" inst4|Add0~61_sumout $end
$var wire 1 ;" inst4|Add0~62 $end
$var wire 1 <" inst4|Add0~57_sumout $end
$var wire 1 =" inst4|Add0~58 $end
$var wire 1 >" inst4|Add0~53_sumout $end
$var wire 1 ?" inst4|cnt[16]~DUPLICATE_q $end
$var wire 1 @" inst4|Add0~54 $end
$var wire 1 A" inst4|Add0~77_sumout $end
$var wire 1 B" inst4|LessThan1~3_combout $end
$var wire 1 C" inst4|LessThan0~0_combout $end
$var wire 1 D" inst4|LessThan0~1_combout $end
$var wire 1 E" inst4|cnt[6]~0_combout $end
$var wire 1 F" inst4|Add0~18 $end
$var wire 1 G" inst4|Add0~21_sumout $end
$var wire 1 H" inst4|Add0~22 $end
$var wire 1 I" inst4|Add0~13_sumout $end
$var wire 1 J" inst4|cnt[2]~DUPLICATE_q $end
$var wire 1 K" inst4|Add0~14 $end
$var wire 1 L" inst4|Add0~9_sumout $end
$var wire 1 M" inst4|Add0~10 $end
$var wire 1 N" inst4|Add0~29_sumout $end
$var wire 1 O" inst4|Add0~30 $end
$var wire 1 P" inst4|Add0~25_sumout $end
$var wire 1 Q" inst4|Add0~26 $end
$var wire 1 R" inst4|Add0~5_sumout $end
$var wire 1 S" inst4|Add0~6 $end
$var wire 1 T" inst4|Add0~33_sumout $end
$var wire 1 U" inst4|Add0~34 $end
$var wire 1 V" inst4|Add0~41_sumout $end
$var wire 1 W" inst4|Add0~42 $end
$var wire 1 X" inst4|Add0~37_sumout $end
$var wire 1 Y" inst4|Add0~38 $end
$var wire 1 Z" inst4|Add0~1_sumout $end
$var wire 1 [" inst4|cnt[10]~DUPLICATE_q $end
$var wire 1 \" inst4|Add0~2 $end
$var wire 1 ]" inst4|Add0~73_sumout $end
$var wire 1 ^" inst4|Add0~74 $end
$var wire 1 _" inst4|Add0~69_sumout $end
$var wire 1 `" inst4|Add0~70 $end
$var wire 1 a" inst4|Add0~65_sumout $end
$var wire 1 b" inst4|Add0~78 $end
$var wire 1 c" inst4|Add0~49_sumout $end
$var wire 1 d" inst4|Add0~50 $end
$var wire 1 e" inst4|Add0~45_sumout $end
$var wire 1 f" inst4|LessThan1~2_combout $end
$var wire 1 g" inst4|LessThan1~0_combout $end
$var wire 1 h" inst4|LessThan1~1_combout $end
$var wire 1 i" inst4|LessThan1~4_combout $end
$var wire 1 j" inst4|buff~q $end
$var wire 1 k" inst1|Add0~77_sumout $end
$var wire 1 l" inst1|Add0~10 $end
$var wire 1 m" inst1|Add0~5_sumout $end
$var wire 1 n" inst1|cnt[10]~DUPLICATE_q $end
$var wire 1 o" inst1|cnt[11]~DUPLICATE_q $end
$var wire 1 p" inst1|Add0~6 $end
$var wire 1 q" inst1|Add0~1_sumout $end
$var wire 1 r" inst1|LessThan1~0_combout $end
$var wire 1 s" inst1|LessThan0~0_combout $end
$var wire 1 t" inst1|LessThan0~1_combout $end
$var wire 1 u" inst1|Add0~2 $end
$var wire 1 v" inst1|Add0~57_sumout $end
$var wire 1 w" inst1|Add0~58 $end
$var wire 1 x" inst1|Add0~61_sumout $end
$var wire 1 y" inst1|Add0~62 $end
$var wire 1 z" inst1|Add0~65_sumout $end
$var wire 1 {" inst1|Add0~66 $end
$var wire 1 |" inst1|Add0~69_sumout $end
$var wire 1 }" inst1|Add0~70 $end
$var wire 1 ~" inst1|Add0~45_sumout $end
$var wire 1 !# inst1|Add0~46 $end
$var wire 1 "# inst1|Add0~49_sumout $end
$var wire 1 ## inst1|Add0~50 $end
$var wire 1 $# inst1|Add0~53_sumout $end
$var wire 1 %# inst1|Add0~54 $end
$var wire 1 &# inst1|Add0~41_sumout $end
$var wire 1 '# inst1|LessThan1~2_combout $end
$var wire 1 (# inst1|LessThan1~3_combout $end
$var wire 1 )# inst1|cnt[2]~0_combout $end
$var wire 1 *# inst1|Add0~78 $end
$var wire 1 +# inst1|Add0~73_sumout $end
$var wire 1 ,# inst1|Add0~74 $end
$var wire 1 -# inst1|Add0~21_sumout $end
$var wire 1 .# inst1|cnt[2]~DUPLICATE_q $end
$var wire 1 /# inst1|Add0~22 $end
$var wire 1 0# inst1|Add0~25_sumout $end
$var wire 1 1# inst1|Add0~26 $end
$var wire 1 2# inst1|Add0~17_sumout $end
$var wire 1 3# inst1|Add0~18 $end
$var wire 1 4# inst1|Add0~13_sumout $end
$var wire 1 5# inst1|Add0~14 $end
$var wire 1 6# inst1|Add0~29_sumout $end
$var wire 1 7# inst1|Add0~30 $end
$var wire 1 8# inst1|Add0~33_sumout $end
$var wire 1 9# inst1|cnt[7]~DUPLICATE_q $end
$var wire 1 :# inst1|Add0~34 $end
$var wire 1 ;# inst1|Add0~37_sumout $end
$var wire 1 <# inst1|Add0~38 $end
$var wire 1 =# inst1|Add0~9_sumout $end
$var wire 1 ># inst1|LessThan1~1_combout $end
$var wire 1 ?# inst1|LessThan1~4_combout $end
$var wire 1 @# inst1|buff~q $end
$var wire 1 A# inst|Add0~25_sumout $end
$var wire 1 B# inst|Add0~26 $end
$var wire 1 C# inst|Add0~21_sumout $end
$var wire 1 D# inst|Add0~22 $end
$var wire 1 E# inst|Add0~29_sumout $end
$var wire 1 F# inst|cnt[2]~DUPLICATE_q $end
$var wire 1 G# inst|Add0~30 $end
$var wire 1 H# inst|Add0~17_sumout $end
$var wire 1 I# inst|Add0~18 $end
$var wire 1 J# inst|Add0~13_sumout $end
$var wire 1 K# inst|cnt[4]~DUPLICATE_q $end
$var wire 1 L# inst|Add0~14 $end
$var wire 1 M# inst|Add0~37_sumout $end
$var wire 1 N# inst|cnt[5]~DUPLICATE_q $end
$var wire 1 O# inst|Add0~38 $end
$var wire 1 P# inst|Add0~33_sumout $end
$var wire 1 Q# inst|cnt[6]~DUPLICATE_q $end
$var wire 1 R# inst|Add0~34 $end
$var wire 1 S# inst|Add0~9_sumout $end
$var wire 1 T# inst|cnt[7]~DUPLICATE_q $end
$var wire 1 U# inst|Add0~10 $end
$var wire 1 V# inst|Add0~5_sumout $end
$var wire 1 W# inst|cnt[8]~DUPLICATE_q $end
$var wire 1 X# inst|Add0~6 $end
$var wire 1 Y# inst|Add0~45_sumout $end
$var wire 1 Z# inst|cnt[9]~DUPLICATE_q $end
$var wire 1 [# inst|Add0~46 $end
$var wire 1 \# inst|Add0~41_sumout $end
$var wire 1 ]# inst|Add0~42 $end
$var wire 1 ^# inst|Add0~1_sumout $end
$var wire 1 _# inst|LessThan0~2_combout $end
$var wire 1 `# inst|LessThan0~0_combout $end
$var wire 1 a# inst|LessThan0~1_combout $end
$var wire 1 b# inst|cnt[1]~0_combout $end
$var wire 1 c# inst|cnt[15]~DUPLICATE_q $end
$var wire 1 d# inst|Add0~2 $end
$var wire 1 e# inst|Add0~61_sumout $end
$var wire 1 f# inst|Add0~62 $end
$var wire 1 g# inst|Add0~57_sumout $end
$var wire 1 h# inst|Add0~58 $end
$var wire 1 i# inst|Add0~53_sumout $end
$var wire 1 j# inst|cnt[14]~DUPLICATE_q $end
$var wire 1 k# inst|Add0~54 $end
$var wire 1 l# inst|Add0~49_sumout $end
$var wire 1 m# inst|cnt[13]~DUPLICATE_q $end
$var wire 1 n# inst|cnt[17]~DUPLICATE_q $end
$var wire 1 o# inst|Add0~50 $end
$var wire 1 p# inst|Add0~77_sumout $end
$var wire 1 q# inst|cnt[16]~DUPLICATE_q $end
$var wire 1 r# inst|Add0~78 $end
$var wire 1 s# inst|Add0~73_sumout $end
$var wire 1 t# inst|cnt[19]~DUPLICATE_q $end
$var wire 1 u# inst|Add0~74 $end
$var wire 1 v# inst|Add0~69_sumout $end
$var wire 1 w# inst|cnt[18]~DUPLICATE_q $end
$var wire 1 x# inst|Add0~70 $end
$var wire 1 y# inst|Add0~65_sumout $end
$var wire 1 z# inst|LessThan1~2_combout $end
$var wire 1 {# inst|LessThan1~3_combout $end
$var wire 1 |# inst|LessThan1~0_combout $end
$var wire 1 }# inst|LessThan1~1_combout $end
$var wire 1 ~# inst|LessThan1~4_combout $end
$var wire 1 !$ inst|buff~q $end
$var wire 1 "$ inst19~combout $end
$var wire 1 #$ inst3|cnt [19] $end
$var wire 1 $$ inst3|cnt [18] $end
$var wire 1 %$ inst3|cnt [17] $end
$var wire 1 &$ inst3|cnt [16] $end
$var wire 1 '$ inst3|cnt [15] $end
$var wire 1 ($ inst3|cnt [14] $end
$var wire 1 )$ inst3|cnt [13] $end
$var wire 1 *$ inst3|cnt [12] $end
$var wire 1 +$ inst3|cnt [11] $end
$var wire 1 ,$ inst3|cnt [10] $end
$var wire 1 -$ inst3|cnt [9] $end
$var wire 1 .$ inst3|cnt [8] $end
$var wire 1 /$ inst3|cnt [7] $end
$var wire 1 0$ inst3|cnt [6] $end
$var wire 1 1$ inst3|cnt [5] $end
$var wire 1 2$ inst3|cnt [4] $end
$var wire 1 3$ inst3|cnt [3] $end
$var wire 1 4$ inst3|cnt [2] $end
$var wire 1 5$ inst3|cnt [1] $end
$var wire 1 6$ inst3|cnt [0] $end
$var wire 1 7$ inst|cnt [19] $end
$var wire 1 8$ inst|cnt [18] $end
$var wire 1 9$ inst|cnt [17] $end
$var wire 1 :$ inst|cnt [16] $end
$var wire 1 ;$ inst|cnt [15] $end
$var wire 1 <$ inst|cnt [14] $end
$var wire 1 =$ inst|cnt [13] $end
$var wire 1 >$ inst|cnt [12] $end
$var wire 1 ?$ inst|cnt [11] $end
$var wire 1 @$ inst|cnt [10] $end
$var wire 1 A$ inst|cnt [9] $end
$var wire 1 B$ inst|cnt [8] $end
$var wire 1 C$ inst|cnt [7] $end
$var wire 1 D$ inst|cnt [6] $end
$var wire 1 E$ inst|cnt [5] $end
$var wire 1 F$ inst|cnt [4] $end
$var wire 1 G$ inst|cnt [3] $end
$var wire 1 H$ inst|cnt [2] $end
$var wire 1 I$ inst|cnt [1] $end
$var wire 1 J$ inst|cnt [0] $end
$var wire 1 K$ inst4|cnt [19] $end
$var wire 1 L$ inst4|cnt [18] $end
$var wire 1 M$ inst4|cnt [17] $end
$var wire 1 N$ inst4|cnt [16] $end
$var wire 1 O$ inst4|cnt [15] $end
$var wire 1 P$ inst4|cnt [14] $end
$var wire 1 Q$ inst4|cnt [13] $end
$var wire 1 R$ inst4|cnt [12] $end
$var wire 1 S$ inst4|cnt [11] $end
$var wire 1 T$ inst4|cnt [10] $end
$var wire 1 U$ inst4|cnt [9] $end
$var wire 1 V$ inst4|cnt [8] $end
$var wire 1 W$ inst4|cnt [7] $end
$var wire 1 X$ inst4|cnt [6] $end
$var wire 1 Y$ inst4|cnt [5] $end
$var wire 1 Z$ inst4|cnt [4] $end
$var wire 1 [$ inst4|cnt [3] $end
$var wire 1 \$ inst4|cnt [2] $end
$var wire 1 ]$ inst4|cnt [1] $end
$var wire 1 ^$ inst4|cnt [0] $end
$var wire 1 _$ inst2|cnt [19] $end
$var wire 1 `$ inst2|cnt [18] $end
$var wire 1 a$ inst2|cnt [17] $end
$var wire 1 b$ inst2|cnt [16] $end
$var wire 1 c$ inst2|cnt [15] $end
$var wire 1 d$ inst2|cnt [14] $end
$var wire 1 e$ inst2|cnt [13] $end
$var wire 1 f$ inst2|cnt [12] $end
$var wire 1 g$ inst2|cnt [11] $end
$var wire 1 h$ inst2|cnt [10] $end
$var wire 1 i$ inst2|cnt [9] $end
$var wire 1 j$ inst2|cnt [8] $end
$var wire 1 k$ inst2|cnt [7] $end
$var wire 1 l$ inst2|cnt [6] $end
$var wire 1 m$ inst2|cnt [5] $end
$var wire 1 n$ inst2|cnt [4] $end
$var wire 1 o$ inst2|cnt [3] $end
$var wire 1 p$ inst2|cnt [2] $end
$var wire 1 q$ inst2|cnt [1] $end
$var wire 1 r$ inst2|cnt [0] $end
$var wire 1 s$ inst5|address [2] $end
$var wire 1 t$ inst5|address [1] $end
$var wire 1 u$ inst5|address [0] $end
$var wire 1 v$ inst1|cnt [19] $end
$var wire 1 w$ inst1|cnt [18] $end
$var wire 1 x$ inst1|cnt [17] $end
$var wire 1 y$ inst1|cnt [16] $end
$var wire 1 z$ inst1|cnt [15] $end
$var wire 1 {$ inst1|cnt [14] $end
$var wire 1 |$ inst1|cnt [13] $end
$var wire 1 }$ inst1|cnt [12] $end
$var wire 1 ~$ inst1|cnt [11] $end
$var wire 1 !% inst1|cnt [10] $end
$var wire 1 "% inst1|cnt [9] $end
$var wire 1 #% inst1|cnt [8] $end
$var wire 1 $% inst1|cnt [7] $end
$var wire 1 %% inst1|cnt [6] $end
$var wire 1 &% inst1|cnt [5] $end
$var wire 1 '% inst1|cnt [4] $end
$var wire 1 (% inst1|cnt [3] $end
$var wire 1 )% inst1|cnt [2] $end
$var wire 1 *% inst1|cnt [1] $end
$var wire 1 +% inst1|cnt [0] $end
$var wire 1 ,% inst14|cnt [19] $end
$var wire 1 -% inst14|cnt [18] $end
$var wire 1 .% inst14|cnt [17] $end
$var wire 1 /% inst14|cnt [16] $end
$var wire 1 0% inst14|cnt [15] $end
$var wire 1 1% inst14|cnt [14] $end
$var wire 1 2% inst14|cnt [13] $end
$var wire 1 3% inst14|cnt [12] $end
$var wire 1 4% inst14|cnt [11] $end
$var wire 1 5% inst14|cnt [10] $end
$var wire 1 6% inst14|cnt [9] $end
$var wire 1 7% inst14|cnt [8] $end
$var wire 1 8% inst14|cnt [7] $end
$var wire 1 9% inst14|cnt [6] $end
$var wire 1 :% inst14|cnt [5] $end
$var wire 1 ;% inst14|cnt [4] $end
$var wire 1 <% inst14|cnt [3] $end
$var wire 1 =% inst14|cnt [2] $end
$var wire 1 >% inst14|cnt [1] $end
$var wire 1 ?% inst14|cnt [0] $end
$var wire 1 @% inst5|index_gen|index [2] $end
$var wire 1 A% inst5|index_gen|index [1] $end
$var wire 1 B% inst5|index_gen|index [0] $end
$upscope $end
$upscope $end
$enddefinitions $end
#0
$dumpvars
0!
0"
0#
0$
0%
1&
0)
0(
0'
0*
0+
1,
x-
1.
1/
10
01
02
03
14
15
16
07
08
09
0:
0;
1<
0=
0>
0?
1@
0A
0B
0C
0D
0E
0F
0G
0H
0I
0J
0K
0L
0M
0N
0O
0P
0Q
0R
0S
0T
0U
0V
0W
0X
0Y
0Z
0[
0\
0]
0^
0_
0`
0a
0b
0c
0d
0e
0f
0g
1h
0i
0j
0k
0l
0m
0n
0o
0p
0q
0r
0s
0t
0u
0v
0w
0x
0y
0z
0{
0|
0}
0~
0!!
0"!
0#!
1$!
0%!
0&!
0'!
0(!
0)!
0*!
0+!
0,!
0-!
0.!
0/!
00!
01!
02!
03!
04!
05!
06!
07!
08!
09!
0:!
0;!
0<!
0=!
0>!
0?!
0@!
0A!
0B!
0C!
0D!
0E!
0F!
0G!
0H!
0I!
0J!
0K!
0L!
0M!
0N!
1O!
1P!
1Q!
0R!
0S!
1T!
0U!
0V!
1W!
0X!
0Y!
0Z!
0[!
0\!
0]!
0^!
0_!
0`!
0a!
0b!
0c!
0d!
0e!
0f!
0g!
0h!
0i!
0j!
0k!
0l!
0m!
0n!
0o!
0p!
0q!
0r!
0s!
0t!
0u!
0v!
0w!
0x!
0y!
0z!
0{!
0|!
0}!
0~!
0!"
0""
0#"
0$"
0%"
0&"
1'"
1("
0)"
0*"
0+"
0,"
0-"
0."
1/"
00"
01"
02"
03"
04"
15"
06"
07"
18"
09"
0:"
0;"
0<"
0="
0>"
0?"
0@"
0A"
1B"
0C"
0D"
1E"
0F"
0G"
0H"
0I"
0J"
0K"
0L"
0M"
0N"
0O"
0P"
0Q"
0R"
0S"
0T"
0U"
0V"
0W"
0X"
0Y"
0Z"
0["
0\"
0]"
0^"
0_"
0`"
0a"
0b"
0c"
0d"
0e"
1f"
0g"
0h"
0i"
0j"
1k"
0l"
0m"
0n"
0o"
0p"
0q"
0r"
0s"
0t"
0u"
0v"
0w"
0x"
0y"
0z"
0{"
0|"
0}"
0~"
0!#
0"#
0##
0$#
0%#
0&#
1'#
1(#
1)#
0*#
0+#
0,#
0-#
0.#
0/#
00#
01#
02#
03#
04#
05#
06#
07#
08#
09#
0:#
0;#
0<#
0=#
0>#
0?#
0@#
1A#
0B#
0C#
0D#
0E#
0F#
0G#
0H#
0I#
0J#
0K#
0L#
0M#
0N#
0O#
0P#
0Q#
0R#
0S#
0T#
0U#
0V#
0W#
0X#
0Y#
0Z#
0[#
0\#
0]#
0^#
0_#
1`#
1a#
0b#
0c#
0d#
0e#
0f#
0g#
0h#
0i#
0j#
0k#
0l#
0m#
0n#
0o#
0p#
0q#
0r#
0s#
0t#
0u#
0v#
0w#
0x#
0y#
1z#
1{#
1|#
1}#
0~#
0!$
0"$
06$
05$
04$
03$
02$
01$
00$
0/$
0.$
0-$
0,$
0+$
0*$
0)$
0($
0'$
0&$
0%$
0$$
0#$
0J$
0I$
0H$
0G$
0F$
0E$
0D$
0C$
0B$
0A$
0@$
0?$
0>$
0=$
0<$
0;$
0:$
09$
08$
07$
0^$
0]$
0\$
0[$
0Z$
0Y$
0X$
0W$
0V$
0U$
0T$
0S$
0R$
0Q$
0P$
0O$
0N$
0M$
0L$
0K$
0r$
0q$
0p$
0o$
0n$
0m$
0l$
0k$
0j$
0i$
0h$
0g$
0f$
0e$
0d$
0c$
0b$
0a$
0`$
0_$
0u$
0t$
0s$
0+%
0*%
0)%
0(%
0'%
0&%
0%%
0$%
0#%
0"%
0!%
0~$
0}$
0|$
0{$
0z$
0y$
0x$
0w$
0v$
0?%
0>%
0=%
0<%
0;%
0:%
09%
08%
07%
06%
05%
04%
03%
02%
01%
00%
0/%
0.%
0-%
0,%
0B%
0A%
0@%
$end
#5000
1#
12
13
1J$
1?%
1B
1B#
0A#
05
1C#
1C
#10000
0#
02
03
#15000
1#
12
13
1I$
0J$
1D
0?%
1>%
0B
1E
0B#
1A#
1D#
0C#
15
0C
0E
0D#
1C#
1E#
1C
1F
0E#
0F
#20000
0#
02
03
#25000
1#
12
13
1J$
1?%
1B
1B#
0A#
05
1E
1D#
0C#
0C
1E#
1F
#30000
0#
02
03
#35000
1#
12
13
1H$
1F#
0I$
0J$
1=%
0D
0?%
1>
0>%
0B
0E
1G
0B#
1A#
0D#
1C#
1G#
0E#
15
1C
0F
0G
0C#
0G#
1E#
1H#
0C
1F
1H
0H#
0H
#40000
0#
02
03
#45000
1#
12
13
1J$
1?%
0h
1B
1B#
0A#
05
1C#
1C
1i
#50000
0#
02
03
#55000
1#
12
13
1I$
0J$
1D
0?%
1>%
1j
0B
1E
0B#
1A#
1D#
0C#
15
0C
0E
1G
0D#
1C#
1G#
0E#
1C
0F
0G
0G#
1E#
1H#
1F
1H
0H#
0H
#60000
0#
02
03
#65000
1#
12
13
1J$
1?%
1B
0|#
1B#
0A#
05
1E
1D#
0C#
0C
1G
1G#
0E#
0F
1H#
1H
#70000
1!
0#
1m
02
03
1u
1q
#75000
1#
12
13
0H$
1G$
0F#
0I$
0J$
1v
1r
1<%
0=%
0D
0?%
0>
1=
0>%
0B
0E
0G
1I
1s
1y
0B#
1A#
0D#
1C#
0G#
1E#
1I#
0H#
15
1C
1F
0H
0I
0C#
0E#
0I#
1H#
0C
0F
1H
1J
1J#
0J
0J#
#80000
0!
0#
0m
02
03
#85000
1#
12
13
1J$
1?%
1u$
1)
1?
1B
1B#
0A#
0E"
05
1C#
1A
1C
#90000
0#
02
03
