termproject/simulation/qsim/termproject.msim.vcd
$comment
	File created using the following command:
		vcd file termproject.msim.vcd -direction
$end
$date
	Wed Nov 22 20:56:14 2023
$end
$version
	ModelSim Version 2020.1
$end
$timescale
	1ps
$end

$scope module word_register_vlg_vec_tst $end
$var reg 1 ! clk $end
$var reg 5 " input_alphabet [4:0] $end
$var reg 1 # mode $end
$var reg 1 $ reset $end
$var reg 1 % sharp $end
$var reg 1 & star $end
$var wire 1 ' alphabet_0 [4] $end
$var wire 1 ( alphabet_0 [3] $end
$var wire 1 ) alphabet_0 [2] $end
$var wire 1 * alphabet_0 [1] $end
$var wire 1 + alphabet_0 [0] $end
$var wire 1 , alphabet_1 [4] $end
$var wire 1 - alphabet_1 [3] $end
$var wire 1 . alphabet_1 [2] $end
$var wire 1 / alphabet_1 [1] $end
$var wire 1 0 alphabet_1 [0] $end
$var wire 1 1 alphabet_2 [4] $end
$var wire 1 2 alphabet_2 [3] $end
$var wire 1 3 alphabet_2 [2] $end
$var wire 1 4 alphabet_2 [1] $end
$var wire 1 5 alphabet_2 [0] $end
$var wire 1 6 alphabet_3 [4] $end
$var wire 1 7 alphabet_3 [3] $end
$var wire 1 8 alphabet_3 [2] $end
$var wire 1 9 alphabet_3 [1] $end
$var wire 1 : alphabet_3 [0] $end
$var wire 1 ; alphabet_4 [4] $end
$var wire 1 < alphabet_4 [3] $end
$var wire 1 = alphabet_4 [2] $end
$var wire 1 > alphabet_4 [1] $end
$var wire 1 ? alphabet_4 [0] $end
$var wire 1 @ alphabet_5 [4] $end
$var wire 1 A alphabet_5 [3] $end
$var wire 1 B alphabet_5 [2] $end
$var wire 1 C alphabet_5 [1] $end
$var wire 1 D alphabet_5 [0] $end
$var wire 1 E alphabet_6 [4] $end
$var wire 1 F alphabet_6 [3] $end
$var wire 1 G alphabet_6 [2] $end
$var wire 1 H alphabet_6 [1] $end
$var wire 1 I alphabet_6 [0] $end
$var wire 1 J alphabet_7 [4] $end
$var wire 1 K alphabet_7 [3] $end
$var wire 1 L alphabet_7 [2] $end
$var wire 1 M alphabet_7 [1] $end
$var wire 1 N alphabet_7 [0] $end

$scope module i1 $end
$var wire 1 O gnd $end
$var wire 1 P vcc $end
$var wire 1 Q unknown $end
$var tri1 1 R devclrn $end
$var tri1 1 S devpor $end
$var tri1 1 T devoe $end
$var wire 1 U ~QUARTUS_CREATED_GND~I_combout $end
$var wire 1 V clk~input_o $end
$var wire 1 W clk~inputCLKENA0_outclk $end
$var wire 1 X input_alphabet[4]~input_o $end
$var wire 1 Y inst|inst9~feeder_combout $end
$var wire 1 Z sharp~input_o $end
$var wire 1 [ reset~input_o $end
$var wire 1 \ inst5~combout $end
$var wire 1 ] mode~input_o $end
$var wire 1 ^ star~input_o $end
$var wire 1 _ inst13|inst2~feeder_combout $end
$var wire 1 ` inst13|inst2~q $end
$var wire 1 a inst13|inst3~feeder_combout $end
$var wire 1 b inst13|inst3~q $end
$var wire 1 c inst12~combout $end
$var wire 1 d inst|inst9~q $end
$var wire 1 e input_alphabet[3]~input_o $end
$var wire 1 f inst|inst4~feeder_combout $end
$var wire 1 g inst|inst4~q $end
$var wire 1 h input_alphabet[2]~input_o $end
$var wire 1 i inst|inst3~feeder_combout $end
$var wire 1 j inst|inst3~q $end
$var wire 1 k input_alphabet[1]~input_o $end
$var wire 1 l inst|inst1~feeder_combout $end
$var wire 1 m inst|inst1~q $end
$var wire 1 n input_alphabet[0]~input_o $end
$var wire 1 o inst|inst2~feeder_combout $end
$var wire 1 p inst|inst2~q $end
$var wire 1 q inst1|inst9~feeder_combout $end
$var wire 1 r inst1|inst9~q $end
$var wire 1 s inst1|inst4~q $end
$var wire 1 t inst1|inst3~feeder_combout $end
$var wire 1 u inst1|inst3~q $end
$var wire 1 v inst1|inst1~feeder_combout $end
$var wire 1 w inst1|inst1~q $end
$var wire 1 x inst1|inst2~q $end
$var wire 1 y inst2|inst9~feeder_combout $end
$var wire 1 z inst2|inst9~q $end
$var wire 1 { inst2|inst4~q $end
$var wire 1 | inst2|inst3~feeder_combout $end
$var wire 1 } inst2|inst3~q $end
$var wire 1 ~ inst2|inst1~feeder_combout $end
$var wire 1 !! inst2|inst1~q $end
$var wire 1 "! inst2|inst2~feeder_combout $end
$var wire 1 #! inst2|inst2~q $end
$var wire 1 $! inst6|inst9~feeder_combout $end
$var wire 1 %! inst6|inst9~q $end
$var wire 1 &! inst6|inst4~feeder_combout $end
$var wire 1 '! inst6|inst4~q $end
$var wire 1 (! inst6|inst3~feeder_combout $end
$var wire 1 )! inst6|inst3~q $end
$var wire 1 *! inst6|inst1~q $end
$var wire 1 +! inst6|inst2~q $end
$var wire 1 ,! inst7|inst9~q $end
$var wire 1 -! inst7|inst4~q $end
$var wire 1 .! inst7|inst3~q $end
$var wire 1 /! inst7|inst1~q $end
$var wire 1 0! inst7|inst2~q $end
$var wire 1 1! inst8|inst9~q $end
$var wire 1 2! inst8|inst4~feeder_combout $end
$var wire 1 3! inst8|inst4~q $end
$var wire 1 4! inst8|inst3~feeder_combout $end
$var wire 1 5! inst8|inst3~q $end
$var wire 1 6! inst8|inst1~feeder_combout $end
$var wire 1 7! inst8|inst1~q $end
$var wire 1 8! inst8|inst2~feeder_combout $end
$var wire 1 9! inst8|inst2~q $end
$var wire 1 :! inst9|inst9~feeder_combout $end
$var wire 1 ;! inst9|inst9~q $end
$var wire 1 <! inst9|inst4~feeder_combout $end
$var wire 1 =! inst9|inst4~q $end
$var wire 1 >! inst9|inst3~feeder_combout $end
$var wire 1 ?! inst9|inst3~q $end
$var wire 1 @! inst9|inst1~feeder_combout $end
$var wire 1 A! inst9|inst1~q $end
$var wire 1 B! inst9|inst2~feeder_combout $end
$var wire 1 C! inst9|inst2~q $end
$var wire 1 D! inst10|inst9~q $end
$var wire 1 E! inst10|inst4~q $end
$var wire 1 F! inst10|inst3~feeder_combout $end
$var wire 1 G! inst10|inst3~q $end
$var wire 1 H! inst10|inst1~q $end
$var wire 1 I! inst10|inst2~q $end
$upscope $end
$upscope $end
$enddefinitions $end
#0
$dumpvars
0!
b0 "
0#
1$
0%
0&
0+
0*
0)
0(
0'
00
0/
0.
0-
0,
05
04
03
02
01
0:
09
08
07
06
0?
0>
0=
0<
0;
0D
0C
0B
0A
0@
0I
0H
0G
0F
0E
0N
0M
0L
0K
0J
0O
1P
xQ
1R
1S
1T
0U
0V
0W
0X
0Y
0Z
1[
0\
0]
0^
0_
0`
0a
0b
0c
0d
0e
0f
0g
0h
0i
0j
0k
0l
0m
0n
0o
0p
0q
0r
0s
0t
0u
0v
0w
0x
0y
0z
0{
0|
0}
0~
0!!
0"!
0#!
0$!
0%!
0&!
0'!
0(!
0)!
0*!
0+!
0,!
0-!
0.!
0/!
00!
01!
02!
03!
04!
05!
06!
07!
08!
09!
0:!
0;!
0<!
0=!
0>!
0?!
0@!
0A!
0B!
0C!
0D!
0E!
0F!
0G!
0H!
0I!
$end
#5000
1!
1V
1W
#10000
0!
0V
0W
#15000
1!
1V
1W
#20000
0!
0V
0W
#25000
1!
1V
1W
#30000
b10 "
0!
1k
0V
0W
1l
#35000
1!
1V
1W
#40000
0!
0V
0W
#45000
1!
1V
1W
#50000
1&
0!
1^
0V
0W
1_
#55000
1!
1V
1W
1`
1c
1a
#60000
0!
0V
0W
#65000
1!
1V
1W
1b
1m
1*
0c
1v
#70000
0!
0V
0W
#75000
1!
1V
1W
#80000
b0 "
0!
0k
0V
0W
0l
#85000
1!
1V
1W
#90000
0&
0!
0^
0V
0W
0_
#95000
1!
1V
1W
0`
0a
#100000
0!
0V
0W
#105000
1!
1V
1W
0b
#110000
0!
0V
0W
#115000
1!
1V
1W
#120000
0!
0V
0W
#125000
1!
1V
1W
#130000
0!
0V
0W
#135000
1!
1V
1W
#140000
b1 "
0!
1n
0V
0W
1o
#145000
1!
1V
1W
#150000
0!
0V
0W
#155000
1!
1V
1W
#160000
1&
0!
1^
0V
0W
1_
#165000
1!
1V
1W
1`
1c
1a
#170000
0!
0V
0W
#175000
1!
1V
1W
1b
1w
1p
0m
0*
1+
1/
0c
0v
1~
#180000
0!
0V
0W
#185000
1!
1V
1W
#190000
0!
0V
0W
#195000
1!
1V
1W
#200000
b0 "
0!
0n
0V
0W
0o
#205000
1!
1V
1W
#210000
0&
0!
0^
0V
0W
0_
#215000
1!
1V
1W
0`
0a
#220000
0!
0V
0W
#225000
1!
1V
1W
0b
#230000
b10000 "
0!
1X
0V
0W
1Y
#235000
1!
1V
1W
#240000
0!
0V
0W
#245000
1!
1V
1W
#250000
1&
0!
1^
0V
0W
1_
#255000
1!
1V
1W
1`
1c
1a
#260000
0!
0V
0W
#265000
1!
1V
1W
1b
1!!
1x
0w
0p
1d
1'
0+
0/
10
14
0c
1q
0~
1"!
#270000
0!
0V
0W
#275000
1!
1V
1W
#280000
0!
0V
0W
#285000
1!
1V
1W
#290000
0!
0V
0W
#295000
1!
1V
1W
#300000
b0 "
0!
0X
0V
0W
0Y
#305000
1!
1V
1W
#310000
0&
0!
0^
0V
0W
0_
#315000
1!
1V
1W
0`
0a
#320000
0!
0V
0W
#325000
1!
1V
1W
0b
#330000
1%
0!
1Z
0V
0W
1\
0d
0x
0!!
04
00
0'
0"!
0q
#335000
1!
1V
1W
#340000
b1 "
0!
1n
0V
0W
1o
#345000
1!
1V
1W
#350000
0%
0!
0Z
0V
0W
0\
#355000
1!
1V
1W
#360000
0!
0V
0W
#365000
1!
1V
1W
#370000
1&
0!
1^
0V
0W
1_
#375000
1!
1V
1W
1`
1c
1a
#380000
0!
0V
0W
#385000
1!
1V
1W
1b
1p
1+
0c
#390000
b0 "
0!
0n
0V
0W
0o
#395000
1!
1V
1W
#400000
0!
0V
0W
#405000
1!
1V
1W
#410000
0&
0!
0^
0V
0W
0_
#415000
1!
1V
1W
0`
0a
#420000
0!
0V
0W
#425000
1!
1V
1W
0b
#430000
b10000 "
0!
1X
0V
0W
1Y
#435000
1!
1V
1W
#440000
0!
0V
0W
#445000
1!
1V
1W
#450000
0!
0V
0W
#455000
1!
1V
1W
#460000
1&
0!
1^
0V
0W
1_
#465000
1!
1V
1W
1`
1c
1a
#470000
0!
0V
0W
#475000
1!
1V
1W
1b
1x
0p
1d
1'
0+
10
0c
1q
1"!
#480000
0!
0V
0W
#485000
1!
1V
1W
#490000
b0 "
0!
0X
0V
0W
0Y
#495000
1!
1V
1W
#500000
0!
0V
0W
#505000
1!
1V
1W
#510000
0&
0!
0^
0V
0W
0_
#515000
1!
1V
1W
0`
0a
#520000
0!
0V
0W
#525000
1!
1V
1W
0b
#530000
b1 "
0!
1n
0V
0W
1o
#535000
1!
1V
1W
#540000
0!
0V
0W
#545000
1!
1V
1W
#550000
0!
0V
0W
#555000
1!
1V
1W
#560000
1&
0!
1^
0V
0W
1_
#565000
1!
1V
1W
1`
1c
1a
#570000
0!
0V
0W
#575000
1!
1V
1W
1b
1#!
0x
1r
1p
0d
0'
1+
1,
00
15
0c
0q
1y
0"!
#580000
0!
0V
0W
#585000
1!
1V
1W
#590000
b0 "
0!
0n
0V
0W
0o
#595000
1!
1V
1W
#600000
0!
0V
0W
#605000
1!
1V
1W
#610000
0!
0V
0W
#615000
1!
1V
1W
#620000
0!
0V
0W
#625000
1!
1V
1W
#630000
0!
0V
0W
#635000
1!
1V
1W
#640000
0!
0V
0W
#645000
1!
1V
1W
#650000
0!
0V
0W
#655000
1!
1V
1W
#660000
0!
0V
0W
#665000
1!
1V
1W
#670000
0!
0V
0W
#675000
1!
1V
1W
#680000
0&
0!
0^
0V
0W
0_
#685000
1!
1V
1W
0`
0a
#690000
0!
0V
0W
#695000
1!
1V
1W
0b
#700000
0!
0V
0W
#705000
1!
1V
1W
#710000
0!
0V
0W
#715000
1!
1V
1W
#720000
0!
0V
0W
#725000
1!
1V
1W
#730000
0!
0V
0W
#735000
1!
1V
1W
#740000
0!
0V
0W
#745000
1!
1V
1W
#750000
0!
0V
0W
#755000
1!
1V
1W
#760000
0!
0V
0W
#765000
1!
1V
1W
#770000
0!
0V
0W
#775000
1!
1V
1W
#780000
0!
0V
0W
#785000
1!
1V
1W
#790000
0!
0V
0W
#795000
1!
1V
1W
#800000
0!
0V
0W
#805000
1!
1V
1W
#810000
0!
0V
0W
#815000
1!
1V
1W
#820000
0!
0V
0W
#825000
1!
1V
1W
#830000
0!
0V
0W
#835000
1!
1V
1W
#840000
0!
0V
0W
#845000
1!
1V
1W
#850000
0!
0V
0W
#855000
1!
1V
1W
#860000
0!
0V
0W
#865000
1!
1V
1W
#870000
0!
0V
0W
#875000
1!
1V
1W
#880000
0!
0V
0W
#885000
1!
1V
1W
#890000
0!
0V
0W
#895000
1!
1V
1W
#900000
0!
0V
0W
#905000
1!
1V
1W
#910000
0!
0V
0W
#915000
1!
1V
1W
#920000
0!
0V
0W
#925000
1!
1V
1W
#930000
0!
0V
0W
#935000
1!
1V
1W
#940000
0!
0V
0W
#945000
1!
1V
1W
#950000
0!
0V
0W
#955000
1!
1V
1W
#960000
0!
0V
0W
#965000
1!
1V
1W
#970000
0!
0V
0W
#975000
1!
1V
1W
#980000
0!
0V
0W
#985000
1!
1V
1W
#990000
0!
0V
0W
#995000
1!
1V
1W
