termproject/simulation/qsim/termproject.msim.vcd
$comment
	File created using the following command:
		vcd file termproject.msim.vcd -direction
$end
$date
	Wed Nov 22 19:43:38 2023
$end
$version
	ModelSim Version 2020.1
$end
$timescale
	1ps
$end

$scope module keypad_converter_vlg_vec_tst $end
$var reg 1 ! clk $end
$var reg 1 " eight $end
$var reg 1 # five $end
$var reg 1 $ four $end
$var reg 1 % nine $end
$var reg 1 & one $end
$var reg 1 ' reset $end
$var reg 1 ( seven $end
$var reg 1 ) sharp $end
$var reg 1 * six $end
$var reg 1 + star $end
$var reg 1 , three $end
$var reg 1 - two $end
$var reg 1 . zero $end
$var wire 1 / alphabet [4] $end
$var wire 1 0 alphabet [3] $end
$var wire 1 1 alphabet [2] $end
$var wire 1 2 alphabet [1] $end
$var wire 1 3 alphabet [0] $end
$var wire 1 4 sharp_output $end
$var wire 1 5 star_output $end

$scope module i1 $end
$var wire 1 6 gnd $end
$var wire 1 7 vcc $end
$var wire 1 8 unknown $end
$var tri1 1 9 devclrn $end
$var tri1 1 : devpor $end
$var tri1 1 ; devoe $end
$var wire 1 < ~QUARTUS_CREATED_GND~I_combout $end
$var wire 1 = star~input_o $end
$var wire 1 > sharp~input_o $end
$var wire 1 ? clk~input_o $end
$var wire 1 @ clk~inputCLKENA0_outclk $end
$var wire 1 A six~input_o $end
$var wire 1 B zero~input_o $end
$var wire 1 C five~input_o $end
$var wire 1 D seven~input_o $end
$var wire 1 E four~input_o $end
$var wire 1 F inst1|inst6~0_combout $end
$var wire 1 G reset~input_o $end
$var wire 1 H eight~input_o $end
$var wire 1 I nine~input_o $end
$var wire 1 J one~input_o $end
$var wire 1 K three~input_o $end
$var wire 1 L inst1|inst12121~0_combout $end
$var wire 1 M two~input_o $end
$var wire 1 N inst1|inst12121~combout $end
$var wire 1 O inst23|inst2~q $end
$var wire 1 P inst23|inst3~q $end
$var wire 1 Q inst23|inst~combout $end
$var wire 1 R inst24|inst2~q $end
$var wire 1 S inst1|inst7~0_combout $end
$var wire 1 T inst24|inst3~q $end
$var wire 1 U inst1|inst5~0_combout $end
$var wire 1 V inst24|inst1~q $end
$var wire 1 W inst1|inst4~0_combout $end
$var wire 1 X inst24|inst~q $end
$var wire 1 Y inst27|WideOr0~0_combout $end
$var wire 1 Z inst25|inst1~combout $end
$var wire 1 [ inst3|inst7~0_combout $end
$var wire 1 \ inst25|inst2~combout $end
$var wire 1 ] inst3|inst~0_combout $end
$var wire 1 ^ inst3|inst10~combout $end
$var wire 1 _ inst3|inst~q $end
$var wire 1 ` inst25|inst~combout $end
$var wire 1 a inst3|inst1~0_combout $end
$var wire 1 b inst3|inst1~q $end
$var wire 1 c inst27|WideOr1~0_combout $end
$var wire 1 d inst27|WideOr2~0_combout $end
$var wire 1 e inst27|WideOr3~0_combout $end
$var wire 1 f inst27|WideOr4~0_combout $end
$upscope $end
$upscope $end
$enddefinitions $end
#0
$dumpvars
0!
0"
0#
0$
0%
0&
1'
0(
0)
0*
0+
0,
0-
0.
03
02
01
00
0/
04
05
06
17
x8
19
1:
1;
0<
0=
0>
0?
0@
0A
0B
0C
0D
0E
0F
1G
0H
0I
0J
0K
1L
0M
0N
0O
0P
0Q
0R
0S
0T
0U
0V
0W
0X
0Y
0Z
0[
0\
0]
0^
0_
0`
0a
0b
0c
0d
0e
0f
$end
#5000
1!
1?
1@
#10000
0!
0?
0@
#15000
1!
1?
1@
#20000
0!
0?
0@
#25000
1!
1?
1@
#30000
1-
0!
1M
0?
0@
1Z
1U
1N
#35000
1!
1?
1@
1O
1[
1Q
#40000
0!
0?
0@
#45000
1!
1?
1@
1V
1P
0[
0Q
0Z
1f
13
#50000
0!
0?
0@
#55000
1!
1?
1@
#60000
0!
0?
0@
#65000
1!
1?
1@
#70000
0!
0?
0@
#75000
1!
1?
1@
#80000
0-
0!
0M
0?
0@
1Z
0U
0N
#85000
1!
1?
1@
0O
#90000
0!
0?
0@
#95000
1!
1?
1@
0P
#100000
0!
0?
0@
#105000
1!
1?
1@
#110000
1-
0!
1M
0?
0@
0Z
1U
1N
#115000
1!
1?
1@
1O
1[
1Q
1]
#120000
0!
0?
0@
#125000
1!
1?
1@
1_
1P
0[
0Q
0f
1e
1a
0]
12
03
0a
1]
#130000
0!
0?
0@
#135000
1!
1?
1@
#140000
0!
0?
0@
#145000
1!
1?
1@
#150000
0!
0?
0@
#155000
1!
1?
1@
#160000
0!
0?
0@
#165000
1!
1?
1@
#170000
0-
0!
0M
0?
0@
1Z
0U
0N
#175000
1!
1?
1@
0O
#180000
0!
0?
0@
#185000
1!
1?
1@
0P
#190000
1-
0!
1M
0?
0@
0Z
1U
1N
#195000
1!
1?
1@
1O
1[
1Q
1a
0]
#200000
0!
0?
0@
#205000
1!
1?
1@
1b
0_
1P
0[
0Q
1f
1]
13
0]
#210000
0!
0?
0@
#215000
1!
1?
1@
#220000
0!
0?
0@
#225000
1!
1?
1@
#230000
0!
0?
0@
#235000
1!
1?
1@
#240000
0!
0?
0@
#245000
1!
1?
1@
#250000
0!
0?
0@
#255000
1!
1?
1@
#260000
0-
0!
0M
0?
0@
1Z
0U
0N
#265000
1!
1?
1@
0O
#270000
0!
0?
0@
#275000
1!
1?
1@
0P
#280000
0!
0?
0@
#285000
1!
1?
1@
#290000
0!
0?
0@
#295000
1!
1?
1@
#300000
1-
0!
1M
0?
0@
0Z
1U
1N
#305000
1!
1?
1@
1O
1[
1Q
1]
#310000
0!
0?
0@
#315000
1!
1?
1@
1_
1P
0[
0Q
0a
0]
1a
1]
#320000
0!
0?
0@
#325000
1!
1?
1@
#330000
0!
0?
0@
#335000
1!
1?
1@
#340000
0!
0?
0@
#345000
1!
1?
1@
#350000
0!
0?
0@
#355000
1!
1?
1@
#360000
0!
0?
0@
#365000
1!
1?
1@
#370000
0!
0?
0@
#375000
1!
1?
1@
#380000
0!
0?
0@
#385000
1!
1?
1@
#390000
0-
0!
0M
0?
0@
1Z
0U
0N
#395000
1!
1?
1@
0O
#400000
0!
0?
0@
#405000
1!
1?
1@
0P
#410000
0!
0?
0@
#415000
1!
1?
1@
#420000
0!
0?
0@
#425000
1!
1?
1@
#430000
1-
0!
1M
0?
0@
0Z
1U
1N
#435000
1!
1?
1@
1O
1[
1Q
0a
0]
#440000
0!
0?
0@
#445000
1!
1?
1@
0b
0_
1P
0[
0Q
0e
1]
02
0]
#450000
0!
0?
0@
#455000
1!
1?
1@
#460000
0!
0?
0@
#465000
1!
1?
1@
#470000
0!
0?
0@
#475000
1!
1?
1@
#480000
0!
0?
0@
#485000
1!
1?
1@
#490000
0!
0?
0@
#495000
1!
1?
1@
#500000
0-
0!
0M
0?
0@
1Z
0U
0N
#505000
1!
1?
1@
0O
#510000
0!
0?
0@
#515000
1!
1?
1@
0P
#520000
0!
0?
0@
#525000
1!
1?
1@
#530000
0!
0?
0@
#535000
1!
1?
1@
#540000
1&
0!
1J
0?
0@
1^
1W
0L
1`
1N
#545000
1!
1?
1@
1O
1[
1Q
#550000
0!
0?
0@
#555000
1!
1?
1@
1X
0V
1P
0[
0Q
0Z
0`
0f
03
#560000
0!
0?
0@
#565000
1!
1?
1@
#570000
0!
0?
0@
#575000
1!
1?
1@
#580000
0!
0?
0@
#585000
1!
1?
1@
#590000
0!
0?
0@
#595000
1!
1?
1@
#600000
0!
0?
0@
#605000
1!
1?
1@
#610000
0!
0?
0@
#615000
1!
1?
1@
#620000
0&
0!
0J
0?
0@
0^
0W
1L
1`
0N
#625000
1!
1?
1@
0O
#630000
0!
0?
0@
#635000
1!
1?
1@
0P
#640000
0!
0?
0@
#645000
1!
1?
1@
#650000
0!
0?
0@
#655000
1!
1?
1@
#660000
0!
0?
0@
#665000
1!
1?
1@
#670000
1,
0!
1K
0?
0@
1Z
1W
1U
0L
0`
1N
#675000
1!
1?
1@
1O
1[
1Q
#680000
0!
0?
0@
#685000
1!
1?
1@
1V
1P
0[
0Q
0Z
1d
11
#690000
0!
0?
0@
#695000
1!
1?
1@
#700000
0!
0?
0@
#705000
1!
1?
1@
#710000
0,
0!
0K
0?
0@
1Z
0W
0U
1L
1`
0N
#715000
1!
1?
1@
0O
#720000
0!
0?
0@
#725000
1!
1?
1@
0P
#730000
0!
0?
0@
#735000
1!
1?
1@
#740000
0!
0?
0@
#745000
1!
1?
1@
#750000
0!
0?
0@
#755000
1!
1?
1@
#760000
0!
0?
0@
#765000
1!
1?
1@
#770000
1,
0!
1K
0?
0@
0Z
1W
1U
0L
0`
1N
#775000
1!
1?
1@
1O
1[
1Q
1]
#780000
0!
0?
0@
#785000
1!
1?
1@
1_
1P
0[
0Q
1f
1a
0]
13
0a
1]
#790000
0!
0?
0@
#795000
1!
1?
1@
#800000
0!
0?
0@
#805000
1!
1?
1@
#810000
0!
0?
0@
#815000
1!
1?
1@
#820000
0!
0?
0@
#825000
1!
1?
1@
#830000
0,
0!
0K
0?
0@
1Z
0W
0U
1L
1`
0N
#835000
1!
1?
1@
0O
#840000
0!
0?
0@
#845000
1!
1?
1@
0P
#850000
0!
0?
0@
#855000
1!
1?
1@
#860000
0!
0?
0@
#865000
1!
1?
1@
#870000
1,
0!
1K
0?
0@
0Z
1W
1U
0L
0`
1N
#875000
1!
1?
1@
1O
1[
1Q
1a
0]
#880000
0!
0?
0@
#885000
1!
1?
1@
1b
0_
1P
0[
0Q
0f
1e
1]
12
03
0]
#890000
0!
0?
0@
#895000
1!
1?
1@
#900000
0!
0?
0@
#905000
1!
1?
1@
#910000
0!
0?
0@
#915000
1!
1?
1@
#920000
0!
0?
0@
#925000
1!
1?
1@
#930000
0!
0?
0@
#935000
1!
1?
1@
#940000
0,
0!
0K
0?
0@
1Z
0W
0U
1L
1`
0N
#945000
1!
1?
1@
0O
#950000
0!
0?
0@
#955000
1!
1?
1@
0P
#960000
0!
0?
0@
#965000
1!
1?
1@
#970000
0!
0?
0@
#975000
1!
1?
1@
#980000
0!
0?
0@
#985000
1!
1?
1@
#990000
0!
0?
0@
#995000
1!
1?
1@
