termproject/simulation/qsim/termproject.msim.vcd
$comment
	File created using the following command:
		vcd file termproject.msim.vcd -direction
$end
$date
	Tue Nov 28 21:52:45 2023
$end
$version
	ModelSim Version 2020.1
$end
$timescale
	1ps
$end

$scope module hang_man_vlg_vec_tst $end
$var reg 1 ! clk $end
$var reg 1 " eight $end
$var reg 1 # five $end
$var reg 1 $ four $end
$var reg 1 % mode $end
$var reg 1 & nine $end
$var reg 1 ' one $end
$var reg 1 ( reset $end
$var reg 1 ) seven $end
$var reg 1 * sharp $end
$var reg 1 + six $end
$var reg 1 , star $end
$var reg 1 - three $end
$var reg 1 . two $end
$var reg 1 / zero $end
$var wire 1 0 a $end
$var wire 1 1 alphabet_found $end
$var wire 1 2 alphabet_not_found $end
$var wire 1 3 arr_a $end
$var wire 1 4 arr_b $end
$var wire 1 5 arr_c $end
$var wire 1 6 arr_d $end
$var wire 1 7 arr_e $end
$var wire 1 8 arr_f $end
$var wire 1 9 arr_g $end
$var wire 1 : b $end
$var wire 1 ; c $end
$var wire 1 < com_1 $end
$var wire 1 = com_2 $end
$var wire 1 > com_3 $end
$var wire 1 ? com_4 $end
$var wire 1 @ com_5 $end
$var wire 1 A com_6 $end
$var wire 1 B com_7 $end
$var wire 1 C com_8 $end
$var wire 1 D d $end
$var wire 1 E e $end
$var wire 1 F f $end
$var wire 1 G g $end
$var wire 1 H game_over $end
$var wire 1 I game_win $end
$var wire 1 J life_led1 $end
$var wire 1 K life_led2 $end
$var wire 1 L life_led3 $end
$var wire 1 M out_is_correct_0 $end
$var wire 1 N out_is_correct_1 $end
$var wire 1 O out_is_correct_2 $end
$var wire 1 P out_is_correct_3 $end
$var wire 1 Q out_is_correct_4 $end
$var wire 1 R out_is_correct_5 $end
$var wire 1 S out_is_correct_6 $end
$var wire 1 T out_is_correct_7 $end

$scope module i1 $end
$var wire 1 U gnd $end
$var wire 1 V vcc $end
$var wire 1 W unknown $end
$var tri1 1 X devclrn $end
$var tri1 1 Y devpor $end
$var tri1 1 Z devoe $end
$var wire 1 [ ~QUARTUS_CREATED_GND~I_combout $end
$var wire 1 \ clk~input_o $end
$var wire 1 ] clk~inputCLKENA0_outclk $end
$var wire 1 ^ mode~input_o $end
$var wire 1 _ star~input_o $end
$var wire 1 ` inst2|inst23~combout $end
$var wire 1 a reset~input_o $end
$var wire 1 b inst2|inst9|inst2~q $end
$var wire 1 c inst2|inst9|inst3~q $end
$var wire 1 d inst2|inst9|inst~combout $end
$var wire 1 e zero~input_o $end
$var wire 1 f nine~input_o $end
$var wire 1 g eight~input_o $end
$var wire 1 h inst|inst1|inst7~0_combout $end
$var wire 1 i two~input_o $end
$var wire 1 j six~input_o $end
$var wire 1 k seven~input_o $end
$var wire 1 l five~input_o $end
$var wire 1 m three~input_o $end
$var wire 1 n one~input_o $end
$var wire 1 o inst|inst1|inst12121~0_combout $end
$var wire 1 p four~input_o $end
$var wire 1 q inst|inst1|inst12121~combout $end
$var wire 1 r inst|inst23|inst2~q $end
$var wire 1 s inst|inst23|inst3~q $end
$var wire 1 t inst|inst23|inst~combout $end
$var wire 1 u inst|inst24|inst3~q $end
$var wire 1 v inst|inst1|inst6~0_combout $end
$var wire 1 w inst|inst24|inst2~q $end
$var wire 1 x inst|inst1|inst5~0_combout $end
$var wire 1 y inst|inst24|inst1~q $end
$var wire 1 z inst|inst1|inst4~0_combout $end
$var wire 1 { inst|inst24|inst~q $end
$var wire 1 | inst|inst25|inst~combout $end
$var wire 1 } inst|inst25|inst2~combout $end
$var wire 1 ~ inst|inst3|inst7~0_combout $end
$var wire 1 !! inst|inst25|inst1~combout $end
$var wire 1 "! inst|inst3|inst~0_combout $end
$var wire 1 #! inst|inst3|inst10~combout $end
$var wire 1 $! inst|inst3|inst~q $end
$var wire 1 %! inst|inst3|inst1~0_combout $end
$var wire 1 &! inst|inst3|inst1~q $end
$var wire 1 '! inst|inst27|WideOr4~0_combout $end
$var wire 1 (! sharp~input_o $end
$var wire 1 )! inst8|inst5~combout $end
$var wire 1 *! inst8|inst13|inst2~q $end
$var wire 1 +! inst8|inst13|inst3~q $end
$var wire 1 ,! inst8|inst12~combout $end
$var wire 1 -! inst8|inst|inst2~q $end
$var wire 1 .! inst8|inst1|inst2~q $end
$var wire 1 /! inst8|inst2|inst2~q $end
$var wire 1 0! inst8|inst6|inst2~q $end
$var wire 1 1! inst|inst27|WideOr0~0_combout $end
$var wire 1 2! inst8|inst|inst9~q $end
$var wire 1 3! inst8|inst1|inst9~q $end
$var wire 1 4! inst8|inst2|inst9~q $end
$var wire 1 5! inst8|inst6|inst9~q $end
$var wire 1 6! inst|inst27|WideOr3~0_combout $end
$var wire 1 7! inst8|inst|inst1~q $end
$var wire 1 8! inst8|inst1|inst1~q $end
$var wire 1 9! inst8|inst2|inst1~q $end
$var wire 1 :! inst8|inst6|inst1~q $end
$var wire 1 ;! inst1|inst11~1_combout $end
$var wire 1 <! inst|inst27|WideOr2~1_combout $end
$var wire 1 =! inst|inst27|WideOr2~0_combout $end
$var wire 1 >! inst|inst27|WideOr2~2_combout $end
$var wire 1 ?! inst|inst27|WideOr2~3_combout $end
$var wire 1 @! inst8|inst|inst3~q $end
$var wire 1 A! inst8|inst1|inst3~q $end
$var wire 1 B! inst8|inst2|inst3~q $end
$var wire 1 C! inst8|inst6|inst3~q $end
$var wire 1 D! inst|inst27|WideOr1~0_combout $end
$var wire 1 E! inst|inst27|WideOr1~1_combout $end
$var wire 1 F! inst|inst27|WideOr1~2_combout $end
$var wire 1 G! inst8|inst|inst4~q $end
$var wire 1 H! inst8|inst1|inst4~q $end
$var wire 1 I! inst8|inst2|inst4~q $end
$var wire 1 J! inst8|inst6|inst4~q $end
$var wire 1 K! inst1|inst11~0_combout $end
$var wire 1 L! inst1|inst45|inst4~combout $end
$var wire 1 M! inst1|inst45|inst3~combout $end
$var wire 1 N! inst1|inst11~2_combout $end
$var wire 1 O! inst1|inst11~q $end
$var wire 1 P! inst2|inst13|inst2~q $end
$var wire 1 Q! inst2|inst13|inst3~feeder_combout $end
$var wire 1 R! inst2|inst13|inst3~q $end
$var wire 1 S! inst1|inst3|inst4~combout $end
$var wire 1 T! inst1|inst4~1_combout $end
$var wire 1 U! inst1|inst4~0_combout $end
$var wire 1 V! inst1|inst3|inst3~combout $end
$var wire 1 W! inst1|inst4~2_combout $end
$var wire 1 X! inst1|inst4~q $end
$var wire 1 Y! inst2|inst19|inst2~feeder_combout $end
$var wire 1 Z! inst2|inst19|inst2~q $end
$var wire 1 [! inst2|inst19|inst3~q $end
$var wire 1 \! inst2|inst2~1_combout $end
$var wire 1 ]! inst8|inst7|inst1~q $end
$var wire 1 ^! inst8|inst8|inst1~q $end
$var wire 1 _! inst8|inst9|inst1~q $end
$var wire 1 `! inst8|inst7|inst2~q $end
$var wire 1 a! inst8|inst8|inst2~q $end
$var wire 1 b! inst8|inst9|inst2~q $end
$var wire 1 c! inst8|inst7|inst4~q $end
$var wire 1 d! inst8|inst8|inst4~q $end
$var wire 1 e! inst8|inst9|inst4~q $end
$var wire 1 f! inst8|inst7|inst3~q $end
$var wire 1 g! inst8|inst8|inst3~q $end
$var wire 1 h! inst8|inst9|inst3~q $end
$var wire 1 i! inst8|inst7|inst9~q $end
$var wire 1 j! inst8|inst8|inst9~q $end
$var wire 1 k! inst8|inst9|inst9~q $end
$var wire 1 l! inst1|inst20~0_combout $end
$var wire 1 m! inst1|inst15|inst4~combout $end
$var wire 1 n! inst1|inst15|inst3~combout $end
$var wire 1 o! inst1|inst20~1_combout $end
$var wire 1 p! inst1|inst20~2_combout $end
$var wire 1 q! inst1|inst20~q $end
$var wire 1 r! inst2|inst16|inst2~q $end
$var wire 1 s! inst2|inst16|inst3~q $end
$var wire 1 t! inst1|inst13~0_combout $end
$var wire 1 u! inst1|inst10|inst4~combout $end
$var wire 1 v! inst1|inst10|inst3~combout $end
$var wire 1 w! inst1|inst13~1_combout $end
$var wire 1 x! inst1|inst13~2_combout $end
$var wire 1 y! inst1|inst13~q $end
$var wire 1 z! inst2|inst14|inst2~feeder_combout $end
$var wire 1 {! inst2|inst14|inst2~q $end
$var wire 1 |! inst8|inst10|inst9~q $end
$var wire 1 }! inst8|inst10|inst2~q $end
$var wire 1 ~! inst8|inst10|inst3~q $end
$var wire 1 !" inst8|inst10|inst1~q $end
$var wire 1 "" inst8|inst10|inst4~q $end
$var wire 1 #" inst1|inst23~0_combout $end
$var wire 1 $" inst1|inst23~1_combout $end
$var wire 1 %" inst1|inst16|inst4~combout $end
$var wire 1 &" inst1|inst16|inst3~combout $end
$var wire 1 '" inst1|inst23~2_combout $end
$var wire 1 (" inst1|inst23~q $end
$var wire 1 )" inst2|inst17|inst2~feeder_combout $end
$var wire 1 *" inst2|inst17|inst2~q $end
$var wire 1 +" inst2|inst17|inst3~feeder_combout $end
$var wire 1 ," inst2|inst17|inst3~q $end
$var wire 1 -" inst2|inst14|inst3~q $end
$var wire 1 ." inst2|inst2~2_combout $end
$var wire 1 /" inst1|inst17~0_combout $end
$var wire 1 0" inst1|inst19|inst4~combout $end
$var wire 1 1" inst1|inst17~1_combout $end
$var wire 1 2" inst1|inst19|inst3~combout $end
$var wire 1 3" inst1|inst17~2_combout $end
$var wire 1 4" inst1|inst17~q $end
$var wire 1 5" inst2|inst15|inst2~q $end
$var wire 1 6" inst2|inst15|inst3~q $end
$var wire 1 7" inst1|inst8~0_combout $end
$var wire 1 8" inst1|inst7|inst4~combout $end
$var wire 1 9" inst1|inst8~1_combout $end
$var wire 1 :" inst1|inst7|inst3~combout $end
$var wire 1 ;" inst1|inst8~2_combout $end
$var wire 1 <" inst1|inst8~q $end
$var wire 1 =" inst2|inst|inst2~q $end
$var wire 1 >" inst2|inst|inst3~feeder_combout $end
$var wire 1 ?" inst2|inst|inst3~q $end
$var wire 1 @" inst1|inst2~1_combout $end
$var wire 1 A" inst1|inst2~0_combout $end
$var wire 1 B" inst1|inst|inst3~combout $end
$var wire 1 C" inst1|inst|inst4~combout $end
$var wire 1 D" inst1|inst2~2_combout $end
$var wire 1 E" inst1|inst2~q $end
$var wire 1 F" inst2|inst18|inst2~q $end
$var wire 1 G" inst2|inst2~q $end
$var wire 1 H" inst2|inst18|inst3~q $end
$var wire 1 I" inst2|inst2~0_combout $end
$var wire 1 J" inst2|inst2~3_combout $end
$var wire 1 K" inst2|inst2~DUPLICATE_q $end
$var wire 1 L" inst2|inst12~q $end
$var wire 1 M" inst2|inst11~combout $end
$var wire 1 N" inst2|inst9|inst3~DUPLICATE_q $end
$var wire 1 O" inst2|inst1~combout $end
$var wire 1 P" inst2|inst6~0_combout $end
$var wire 1 Q" inst2|inst6~combout $end
$var wire 1 R" inst3|WideOr0~0_combout $end
$var wire 1 S" inst3|WideOr1~0_combout $end
$var wire 1 T" inst3|WideOr2~0_combout $end
$var wire 1 U" inst3|WideOr3~0_combout $end
$var wire 1 V" inst3|WideOr4~0_combout $end
$var wire 1 W" inst3|WideOr5~0_combout $end
$var wire 1 X" inst3|WideOr6~0_combout $end
$var wire 1 Y" inst4|inst~0_combout $end
$var wire 1 Z" inst4|inst~q $end
$var wire 1 [" inst4|inst1~0_combout $end
$var wire 1 \" inst4|inst1~q $end
$var wire 1 ]" inst4|inst9~combout $end
$var wire 1 ^" inst4|inst8~combout $end
$var wire 1 _" inst5|inst2|inst~q $end
$var wire 1 `" inst5|inst2|inst~0_combout $end
$var wire 1 a" inst5|inst2|inst~DUPLICATE_q $end
$var wire 1 b" inst5|inst2|inst1~0_combout $end
$var wire 1 c" inst5|inst2|inst1~q $end
$var wire 1 d" inst5|inst2|inst4~0_combout $end
$var wire 1 e" inst5|inst2|inst4~q $end
$var wire 1 f" inst5|inst1|Mux0~4_combout $end
$var wire 1 g" inst5|inst1|Mux0~0_combout $end
$var wire 1 h" inst5|inst1|output_alphabet[3]~9_combout $end
$var wire 1 i" inst5|inst1|output_alphabet[3]~10_combout $end
$var wire 1 j" inst5|inst2|inst4~DUPLICATE_q $end
$var wire 1 k" inst5|inst1|output_alphabet[3]~11_combout $end
$var wire 1 l" inst5|inst1|output_alphabet[4]~3_combout $end
$var wire 1 m" inst5|inst1|output_alphabet[4]~4_combout $end
$var wire 1 n" inst5|inst1|output_alphabet[4]~5_combout $end
$var wire 1 o" inst5|inst1|output_alphabet[2]~7_combout $end
$var wire 1 p" inst5|inst1|output_alphabet[2]~6_combout $end
$var wire 1 q" inst5|inst1|output_alphabet[2]~8_combout $end
$var wire 1 r" inst5|inst1|output_alphabet[1]~0_combout $end
$var wire 1 s" inst5|inst1|output_alphabet[1]~1_combout $end
$var wire 1 t" inst5|inst1|output_alphabet[1]~2_combout $end
$var wire 1 u" inst5|inst1|output_alphabet[0]~12_combout $end
$var wire 1 v" inst5|inst1|output_alphabet[0]~13_combout $end
$var wire 1 w" inst5|inst1|output_alphabet[0]~14_combout $end
$var wire 1 x" inst5|inst|WideOr0~0_combout $end
$var wire 1 y" inst5|inst|WideOr1~0_combout $end
$var wire 1 z" inst5|inst|WideOr2~0_combout $end
$var wire 1 {" inst5|inst|WideOr3~0_combout $end
$var wire 1 |" inst5|inst|WideOr4~0_combout $end
$var wire 1 }" inst5|inst|WideOr5~0_combout $end
$var wire 1 ~" inst5|inst|WideOr6~0_combout $end
$var wire 1 !# inst5|inst3|Decoder0~0_combout $end
$var wire 1 "# inst5|inst3|Decoder0~1_combout $end
$var wire 1 ## inst5|inst3|Decoder0~2_combout $end
$var wire 1 $# inst5|inst3|Decoder0~3_combout $end
$var wire 1 %# inst5|inst3|Decoder0~4_combout $end
$var wire 1 &# inst5|inst3|Decoder0~5_combout $end
$var wire 1 '# inst5|inst3|Decoder0~6_combout $end
$var wire 1 (# inst5|inst3|Decoder0~7_combout $end
$upscope $end
$upscope $end
$enddefinitions $end
#0
$dumpvars
0!
0"
0#
0$
0%
0&
0'
1(
0)
0*
0+
0,
0-
0.
0/
00
01
02
03
04
05
06
07
08
19
0:
0;
1<
0=
0>
0?
0@
0A
0B
0C
0D
0E
0F
1G
0H
0I
1J
1K
1L
0M
0N
0O
0P
0Q
0R
0S
0T
0U
1V
xW
1X
1Y
1Z
0[
0\
0]
0^
0_
0`
1a
0b
0c
0d
0e
0f
0g
0h
0i
0j
0k
0l
0m
0n
1o
0p
0q
0r
0s
0t
0u
0v
0w
0x
0y
0z
0{
0|
0}
0~
0!!
0"!
0#!
0$!
0%!
0&!
0'!
0(!
0)!
0*!
0+!
0,!
0-!
0.!
0/!
00!
01!
02!
03!
04!
05!
06!
07!
08!
09!
0:!
1;!
1<!
1=!
0>!
0?!
0@!
0A!
0B!
0C!
0D!
1E!
0F!
0G!
0H!
0I!
0J!
1K!
0L!
0M!
0N!
0O!
0P!
0Q!
0R!
0S!
1T!
1U!
0V!
0W!
0X!
0Y!
0Z!
0[!
0\!
0]!
0^!
0_!
0`!
0a!
0b!
0c!
0d!
0e!
0f!
0g!
0h!
0i!
0j!
0k!
1l!
0m!
0n!
1o!
0p!
0q!
0r!
0s!
1t!
0u!
0v!
1w!
0x!
0y!
0z!
0{!
0|!
0}!
0~!
0!"
0""
1#"
1$"
0%"
0&"
0'"
0("
0)"
0*"
0+"
0,"
0-"
1."
1/"
00"
11"
02"
03"
04"
05"
06"
17"
08"
19"
0:"
0;"
0<"
0="
0>"
0?"
1@"
1A"
0B"
0C"
0D"
0E"
0F"
0G"
0H"
1I"
0J"
0K"
0L"
0M"
0N"
0O"
0P"
0Q"
0R"
0S"
0T"
1U"
1V"
1W"
0X"
0Y"
0Z"
0["
0\"
0]"
0^"
0_"
1`"
0a"
0b"
0c"
0d"
0e"
0f"
0g"
0h"
0i"
0j"
1k"
0l"
0m"
1n"
0o"
0p"
0q"
0r"
0s"
1t"
0u"
0v"
1w"
0x"
0y"
0z"
1{"
1|"
1}"
0~"
1!#
0"#
0##
0$#
0%#
0&#
0'#
0(#
$end
#5000
1!
1\
1]
1a"
1_"
1"#
0!#
0`"
1b"
0<
1=
#10000
1)
0!
1k
0\
0]
1!!
1}
1z
1x
0o
1v
1|
1q
#15000
1!
1\
1]
1c"
0a"
0_"
1r
1~
1t
1##
0"#
1`"
0=
1>
#20000
0!
0\
0]
#25000
1!
1\
1]
1a"
1_"
1{
1y
1w
1s
0~
0t
0W"
1B"
1:"
12"
1&"
1v!
1n!
1V!
1M!
1?!
11!
0}
1>!
0=!
0<!
0!!
0|
1S"
1R"
1$#
0##
0`"
1d"
0b"
0>
1?
10
1:
1F
0B"
0:"
02"
0&"
0v!
0n!
0V!
0M!
0?!
0V"
0@"
09"
01"
0$"
0w!
0o!
0T!
0;!
1E
#30000
0!
0\
0]
#35000
1!
1\
1]
1j"
1e"
0c"
0a"
0_"
1%#
0$#
1`"
0?
1@
#40000
0)
0!
0k
0\
0]
1!!
1}
0z
0x
1o
0v
1|
0q
#45000
1!
1\
1]
1a"
1_"
0r
1f"
1&#
0%#
0`"
1b"
0@
1A
#50000
0!
0\
0]
#55000
1!
1\
1]
1c"
0a"
0_"
0s
0f"
1'#
0&#
1`"
0A
1B
#60000
1)
0!
1k
0\
0]
0!!
0}
1z
1x
0o
1v
0|
1q
#65000
1!
1\
1]
1a"
1_"
1r
1~
1t
1f"
1(#
0'#
0`"
0d"
0b"
0B
1C
1"!
#70000
0!
0\
0]
#75000
1!
1\
1]
0j"
0e"
0c"
0a"
0_"
1$!
1s
0~
0t
1'!
0f"
1g"
1T"
1%!
0"!
0(#
1!#
1`"
1<
0C
1;
0g"
1V"
0%!
1"!
0E
#80000
0!
0\
0]
#85000
1!
1\
1]
1a"
1_"
1"#
0!#
0`"
1b"
0<
1=
#90000
0)
0!
0k
0\
0]
1!!
1}
0z
0x
1o
0v
1|
0q
#95000
1!
1\
1]
1c"
0a"
0_"
0r
1##
0"#
1`"
0=
1>
#100000
0!
0\
0]
#105000
1!
1\
1]
1a"
1_"
0s
1$#
0##
0`"
1d"
0b"
0>
1?
#110000
0!
0\
0]
#115000
1!
1\
1]
1j"
1e"
0c"
0a"
0_"
1%#
0$#
1`"
0?
1@
#120000
1,
0!
1_
0\
0]
#125000
1!
1\
1]
1a"
1_"
1*!
1,!
1f"
1&#
0%#
0`"
1b"
0@
1A
#130000
0!
0\
0]
#135000
1!
1\
1]
1c"
0a"
0_"
12!
1-!
1+!
0,!
0A"
1@"
0f"
1'#
0&#
1`"
0A
1B
#140000
0!
0\
0]
#145000
1!
1\
1]
1a"
1_"
1f"
1(#
0'#
0`"
0d"
0b"
0B
1C
#150000
0,
0!
0_
0\
0]
#155000
1!
1\
1]
0j"
0e"
0c"
0a"
0_"
0*!
1v"
1m"
0f"
1g"
0(#
1!#
1`"
1<
0C
0w"
0n"
0g"
0}"
1z"
1y"
1x"
13
14
15
18
#160000
0!
0\
0]
#165000
1!
1\
1]
1a"
1_"
0+!
0v"
0m"
1"#
0!#
0`"
1b"
0<
1=
1n"
1w"
1}"
0z"
0y"
0x"
03
04
05
08
#170000
1)
0!
1k
0\
0]
0!!
0}
1z
1x
0o
1v
0|
1q
#175000
1!
1\
1]
1c"
0a"
0_"
1r
1~
1t
1##
0"#
1`"
0=
1>
1%!
0"!
#180000
0!
0\
0]
#185000
1!
1\
1]
1a"
1_"
1&!
0$!
1s
0~
0t
1W"
16!
0'!
0T"
0S"
0R"
1"!
1$#
0##
0`"
1d"
0b"
0>
1?
00
0:
0;
0F
0V"
0@"
0"!
1E
#190000
0!
0\
0]
#195000
1!
1\
1]
1j"
1e"
0c"
0a"
0_"
1v"
1m"
1%#
0$#
1`"
0?
1@
#200000
0)
0!
0k
0\
0]
1!!
1}
0z
0x
1o
0v
1|
0q
#205000
1!
1\
1]
1a"
1_"
0r
0v"
0m"
1f"
1&#
0%#
0`"
1b"
0@
1A
#210000
0!
0\
0]
#215000
1!
1\
1]
1c"
0a"
0_"
0s
0f"
1'#
0&#
1`"
0A
1B
#220000
1)
0!
1k
0\
0]
0!!
0}
1z
1x
0o
1v
0|
1q
#225000
1!
1\
1]
1a"
1_"
1r
1~
1t
1f"
1(#
0'#
0`"
0d"
0b"
0B
1C
1"!
#230000
0!
0\
0]
#235000
1!
1\
1]
0j"
0e"
0c"
0a"
0_"
1$!
1s
0~
0t
0W"
0U"
1'!
1v"
1m"
0f"
1g"
1T"
1R"
0%!
0"!
0(#
1!#
1`"
1<
0C
10
1;
1D
1F
0w"
0n"
0g"
1V"
1%!
1"!
0E
0}"
1z"
1y"
1x"
13
14
15
18
#240000
0!
0\
0]
#245000
1!
1\
1]
1a"
1_"
0v"
0m"
1"#
0!#
0`"
1b"
0<
1=
1n"
1w"
1}"
0z"
0y"
0x"
03
04
05
08
#250000
0)
0!
0k
0\
0]
1!!
1}
0z
0x
1o
0v
1|
0q
#255000
1!
1\
1]
1c"
0a"
0_"
0r
1##
0"#
1`"
0=
1>
#260000
0!
0\
0]
#265000
1!
1\
1]
1a"
1_"
0s
1$#
0##
0`"
1d"
0b"
0>
1?
#270000
1,
0!
1_
0\
0]
#275000
1!
1\
1]
1j"
1e"
0c"
0a"
0_"
1*!
1,!
1v"
1m"
1%#
0$#
1`"
0?
1@
#280000
0!
0\
0]
#285000
1!
1\
1]
1a"
1_"
17!
13!
1.!
1+!
0,!
0U!
1@"
1f"
1&#
0%#
0`"
1b"
0@
1A
#290000
0!
0\
0]
#295000
1!
1\
1]
1c"
0a"
0_"
0v"
0m"
0f"
1'#
0&#
1`"
0A
1B
#300000
0,
0!
0_
0\
0]
#305000
1!
1\
1]
1a"
1_"
0*!
1f"
1(#
0'#
0`"
0d"
0b"
0B
1C
#310000
0!
0\
0]
#315000
1!
1\
1]
0j"
0e"
0c"
0a"
0_"
0+!
1v"
1s"
1m"
0f"
1g"
0(#
1!#
1`"
1<
0C
0w"
0t"
0n"
0g"
0}"
0{"
1z"
1x"
13
15
16
18
#320000
0!
0\
0]
#325000
1!
1\
1]
1a"
1_"
0s"
1"#
0!#
0`"
1b"
0<
1=
1t"
1{"
1y"
14
06
#330000
0!
0\
0]
#335000
1!
1\
1]
1c"
0a"
0_"
0v"
0m"
1##
0"#
1`"
0=
1>
1n"
1w"
1}"
0z"
0y"
0x"
03
04
05
08
#340000
0!
0\
0]
#345000
1!
1\
1]
1a"
1_"
1$#
0##
0`"
1d"
0b"
0>
1?
#350000
0!
0\
0]
#355000
1!
1\
1]
1j"
1e"
0c"
0a"
0_"
1v"
1s"
1m"
1%#
0$#
1`"
0?
1@
#360000
0!
0\
0]
#365000
1!
1\
1]
1a"
1_"
0s"
1f"
1&#
0%#
0`"
1b"
0@
1A
#370000
1%
0!
1^
0\
0]
0w"
0t"
0n"
0k"
1~"
0{"
16
09
#375000
1!
1\
1]
1c"
0a"
0_"
0v"
0m"
0f"
1'#
0&#
1`"
0A
1B
#380000
0!
0\
0]
#385000
1!
1\
1]
1a"
1_"
1f"
1(#
0'#
0`"
0d"
0b"
0B
1C
#390000
1'
0!
1n
0\
0]
1#!
1z
0o
0|
1q
0$!
0&!
1U"
06!
0'!
0T"
1S"
0%!
0"!
1:
0;
0D
0V"
0@"
1E
#395000
1!
1\
1]
0j"
0e"
0c"
0a"
0_"
1r
1~
1t
1v"
1s"
1m"
0f"
1g"
0(#
1!#
1`"
1<
0C
1k"
0g"
0k"
0~"
0}"
1z"
1x"
13
15
18
19
1~"
1}"
0z"
0x"
03
05
08
09
#400000
0!
0\
0]
#405000
1!
1\
1]
1a"
1_"
0y
0w
1s
0~
0t
1W"
1B"
1:"
12"
1&"
1v!
1n!
1V!
1M!
1?!
01!
0}
0E!
0>!
1=!
0!!
0s"
0S"
0R"
1"#
0!#
0`"
1b"
0<
1=
00
0:
0F
0B"
0:"
02"
0&"
0v!
0n!
0V!
0M!
0?!
19"
11"
1$"
1w!
1o!
1;!
1V"
0E
#410000
0'
0!
0n
0\
0]
0#!
0z
1o
1|
0q
#415000
1!
1\
1]
1c"
0a"
0_"
0r
0v"
0m"
1##
0"#
1`"
0=
1>
#420000
0!
0\
0]
#425000
1!
1\
1]
1a"
1_"
0s
1$#
0##
0`"
1d"
0b"
0>
1?
#430000
1,
0!
1_
0\
0]
1`
1;"
13"
1'"
1x!
1p!
1N!
#435000
1!
1\
1]
1j"
1e"
0c"
0a"
0_"
1*!
1b
1<"
14"
1("
1y!
1q!
1O!
1P
1S
1Q
1T
1R
1O
1v"
1s"
1m"
1g"
1%#
0$#
1`"
1z!
1)"
0?
1@
1w"
1t"
1n"
1k"
0~"
1{"
06
19
#440000
0!
0\
0]
#445000
1!
1\
1]
1a"
1_"
1N"
1="
15"
1*"
1{!
1r!
1P!
1+!
1c
1\!
0."
0I"
0s"
1f"
1Q!
1+"
1J"
1>"
1&#
0%#
0`"
1b"
0@
1A
#450000
0!
0\
0]
#455000
1!
1\
1]
1c"
0a"
0_"
1K"
1G"
1?"
16"
1-"
1,"
1s!
1R!
0\!
1."
0v"
0m"
0f"
1'#
0&#
1`"
0A
1B
#460000
0,
0!
0_
0\
0]
0`
#465000
1!
1\
1]
1a"
1_"
1L"
0*!
0b
1d
1f"
1(#
0'#
0`"
0d"
0b"
0B
1C
1M"
11
0G"
0K"
1I"
0J"
#470000
0!
0\
0]
#475000
1!
1\
1]
0j"
0e"
0c"
0a"
0_"
0N"
0L"
0+!
0c
0d
1v"
1s"
1m"
0f"
0M"
0(#
1!#
1`"
1<
0C
01
0g"
0n"
0t"
0w"
0}"
0{"
0k"
1z"
1x"
13
15
16
18
1~"
1}"
0z"
0x"
03
05
08
09
#480000
1)
0!
1k
0\
0]
1!!
1}
1z
1x
0o
1v
0|
1q
#485000
1!
1\
1]
1a"
1_"
1r
1~
1t
0s"
1"#
0!#
0`"
1b"
0<
1=
#490000
0!
0\
0]
#495000
1!
1\
1]
1c"
0a"
0_"
1y
1w
1s
0~
0t
0W"
1C"
18"
10"
1%"
1u!
1m!
1S!
1L!
11!
0}
1E!
1>!
0=!
0!!
0v"
0m"
1f"
1S"
1R"
1F!
1##
0"#
1`"
0=
1>
10
1:
1F
1g"
0C"
08"
00"
0%"
0u!
0m!
0S!
0L!
0V"
09"
01"
0$"
0w!
0o!
0;!
0F!
1E
1w"
1t"
1n"
1k"
0~"
1{"
06
19
#500000
0!
0\
0]
#505000
1!
1\
1]
1a"
1_"
1$#
0##
0`"
1d"
0b"
0>
1?
#510000
0)
0!
0k
0\
0]
1!!
1}
0z
0x
1o
0v
1|
0q
#515000
1!
1\
1]
1j"
1e"
0c"
0a"
0_"
0r
1v"
1s"
1m"
0f"
1%#
0$#
1`"
0?
1@
#520000
0!
0\
0]
#525000
1!
1\
1]
1a"
1_"
0s
0s"
1f"
1&#
0%#
0`"
1b"
0@
1A
#530000
1)
0!
1k
0\
0]
0!!
0}
1z
1x
0o
1v
0|
1q
#535000
1!
1\
1]
1c"
0a"
0_"
1r
1~
1t
0v"
0m"
0f"
1'#
0&#
1`"
0A
1B
1"!
#540000
0!
0\
0]
#545000
1!
1\
1]
1a"
1_"
1$!
1s
0~
0t
1'!
1f"
1T"
1%!
0"!
1(#
0'#
0`"
0d"
0b"
0B
1C
1;
1V"
1T!
0%!
1"!
0E
#550000
0!
0\
0]
#555000
1!
1\
1]
0j"
0e"
0c"
0a"
0_"
1v"
1s"
1m"
0f"
0(#
1!#
1`"
1<
0C
0g"
0n"
0t"
0w"
0}"
0{"
0k"
1z"
1x"
13
15
16
18
1~"
1}"
0z"
0x"
03
05
08
09
#560000
0)
0!
0k
0\
0]
1!!
1}
0z
0x
1o
0v
1|
0q
#565000
1!
1\
1]
1a"
1_"
0r
0s"
1"#
0!#
0`"
1b"
0<
1=
#570000
0!
0\
0]
#575000
1!
1\
1]
1c"
0a"
0_"
0s
0v"
0m"
1f"
1##
0"#
1`"
0=
1>
1g"
1w"
1t"
1n"
1k"
0~"
1{"
06
19
#580000
1,
0!
1_
0\
0]
1`
1W!
#585000
1!
1\
1]
1a"
1_"
1*!
1b
1X!
1N
1$#
0##
0`"
1d"
0b"
1Y!
0>
1?
#590000
0!
0\
0]
#595000
1!
1\
1]
1j"
1e"
0c"
0a"
0_"
1N"
1Z!
1+!
1c
1\!
1v"
1s"
1m"
0f"
1%#
0$#
1`"
0?
1@
1J"
#600000
0!
0\
0]
#605000
1!
1\
1]
1a"
1_"
1K"
1G"
1[!
0\!
0I"
0s"
1f"
1&#
0%#
0`"
1b"
0@
1A
#610000
0,
0!
0_
0\
0]
0`
#615000
1!
1\
1]
1c"
0a"
0_"
1L"
0*!
0b
1d
0v"
0m"
0f"
1'#
0&#
1`"
0A
1B
1M"
11
0G"
0K"
1I"
0J"
#620000
0!
0\
0]
#625000
1!
1\
1]
1a"
1_"
0N"
0L"
0+!
0c
0d
1f"
0M"
1(#
0'#
0`"
0d"
0b"
0B
1C
01
#630000
0!
0\
0]
#635000
1!
1\
1]
0j"
0e"
0c"
0a"
0_"
1v"
1s"
1m"
0f"
0(#
1!#
1`"
1<
0C
0g"
0n"
0t"
0w"
0}"
0{"
0k"
1z"
1x"
13
15
16
18
1~"
1}"
0z"
0x"
03
05
08
09
#640000
0!
0\
0]
#645000
1!
1\
1]
1a"
1_"
0s"
1f"
1"#
0!#
0`"
1b"
0<
1=
1g"
1t"
1k"
0~"
0}"
1{"
1z"
1y"
1x"
13
14
15
06
18
19
#650000
0!
0\
0]
#655000
1!
1\
1]
1c"
0a"
0_"
0v"
0m"
1##
0"#
1`"
0=
1>
1n"
1w"
1}"
0z"
0y"
0x"
03
04
05
08
#660000
0!
0\
0]
#665000
1!
1\
1]
1a"
1_"
1$#
0##
0`"
1d"
0b"
0>
1?
#670000
0!
0\
0]
#675000
1!
1\
1]
1j"
1e"
0c"
0a"
0_"
1v"
1s"
1m"
0f"
1%#
0$#
1`"
0?
1@
#680000
0!
0\
0]
