termproject/simulation/qsim/termproject.msim.vcd
$comment
	File created using the following command:
		vcd file termproject.msim.vcd -direction
$end
$date
	Tue Nov 21 21:25:48 2023
$end
$version
	ModelSim Version 2020.1
$end
$timescale
	1ps
$end

$scope module counter2_vlg_vec_tst $end
$var reg 1 ! clk $end
$var reg 1 " rst_n $end
$var wire 1 # dout [1] $end
$var wire 1 $ dout [0] $end

$scope module i1 $end
$var wire 1 % gnd $end
$var wire 1 & vcc $end
$var wire 1 ' unknown $end
$var tri1 1 ( devclrn $end
$var tri1 1 ) devpor $end
$var tri1 1 * devoe $end
$var wire 1 + ~QUARTUS_CREATED_GND~I_combout $end
$var wire 1 , clk~input_o $end
$var wire 1 - clk~inputCLKENA0_outclk $end
$var wire 1 . rst_n~input_o $end
$var wire 1 / inst~q $end
$var wire 1 0 inst~0_combout $end
$var wire 1 1 inst~DUPLICATE_q $end
$var wire 1 2 inst1~0_combout $end
$var wire 1 3 inst1~q $end
$upscope $end
$upscope $end
$enddefinitions $end
#0
$dumpvars
0!
1"
0$
0#
0%
1&
x'
1(
1)
1*
0+
0,
0-
1.
0/
10
01
02
03
$end
#20000
1!
1,
1-
11
1/
1$
12
00
#50000
0"
0!
0.
0,
0-
01
0/
0$
02
10
#70000
1"
1!
1.
1,
1-
11
1/
1$
12
00
#110000
0!
0,
0-
#130000
1!
1,
1-
01
13
0/
0$
1#
10
#180000
0!
0,
0-
#200000
1!
1,
1-
11
1/
1$
02
00
#240000
0!
0,
0-
#270000
1!
1,
1-
01
03
0/
0$
0#
10
#290000
0!
0,
0-
#310000
1!
1,
1-
11
1/
1$
12
00
#370000
0!
0,
0-
#400000
1!
1,
1-
01
13
0/
0$
1#
10
#440000
0!
0,
0-
#480000
1!
1,
1-
11
1/
1$
02
00
#540000
0!
0,
0-
