week4/work3/simulation/qsim/work3.msim.vcd
$comment
	File created using the following command:
		vcd file work3.msim.vcd -direction
$end
$date
	Tue Sep 26 19:10:08 2023
$end
$version
	ModelSim Version 2020.1
$end
$timescale
	1ps
$end

$scope module work3_vlg_vec_tst $end
$var reg 1 ! CLK $end
$var reg 1 " Din $end
$var reg 1 # Reset $end
$var wire 1 $ Q0 $end
$var wire 1 % Q1 $end
$var wire 1 & Q2 $end
$var wire 1 ' Q3 $end

$scope module i1 $end
$var wire 1 ( gnd $end
$var wire 1 ) vcc $end
$var wire 1 * unknown $end
$var tri1 1 + devclrn $end
$var tri1 1 , devpor $end
$var tri1 1 - devoe $end
$var wire 1 . ~QUARTUS_CREATED_GND~I_combout $end
$var wire 1 / CLK~input_o $end
$var wire 1 0 CLK~inputCLKENA0_outclk $end
$var wire 1 1 Din~input_o $end
$var wire 1 2 Reset~input_o $end
$var wire 1 3 FF3~q $end
$var wire 1 4 FF2~feeder_combout $end
$var wire 1 5 FF2~DUPLICATE_q $end
$var wire 1 6 FF2~q $end
$var wire 1 7 FF1~feeder_combout $end
$var wire 1 8 FF1~DUPLICATE_q $end
$var wire 1 9 FF1~q $end
$var wire 1 : FF0~feeder_combout $end
$var wire 1 ; FF0~q $end
$upscope $end
$upscope $end
$enddefinitions $end
#0
$dumpvars
0!
0"
1#
0$
0%
0&
0'
0(
1)
x*
1+
1,
1-
0.
0/
00
01
12
03
04
05
06
07
08
09
0:
0;
$end
#20000
1!
1/
10
#40000
0!
0/
00
#60000
1!
1/
10
#80000
1"
0!
11
0/
00
#90000
0"
01
#100000
1!
1/
10
#120000
0!
0/
00
#140000
1"
1!
11
1/
10
13
1'
14
#160000
0!
0/
00
#180000
1!
1/
10
16
15
1&
17
#200000
0"
0!
01
0/
00
#220000
1!
1/
10
19
18
03
0'
1%
1:
04
#240000
0!
0/
00
#260000
1!
1/
10
06
1;
05
0&
1$
07
#280000
0!
0/
00
#300000
1!
1/
10
09
08
0%
0:
#320000
0!
0/
00
#340000
1"
1!
11
1/
10
0;
13
1'
0$
14
#360000
0!
0/
00
#380000
1!
1/
10
16
15
1&
17
#400000
0!
0/
00
#420000
1!
1/
10
19
18
1%
1:
#440000
0"
0!
01
0/
00
#460000
1!
1/
10
1;
03
0'
1$
04
#480000
0#
0!
02
0/
00
06
09
05
08
0;
0$
0%
0&
0:
07
#500000
1!
1/
10
#520000
0!
0/
00
#540000
1!
1/
10
#560000
0!
0/
00
#580000
1!
1/
10
#600000
0!
0/
00
#620000
1!
1/
10
#640000
0!
0/
00
#660000
1!
1/
10
#680000
0!
0/
00
#700000
1!
1/
10
#720000
0!
0/
00
#740000
1!
1/
10
#760000
0!
0/
00
#780000
1!
1/
10
#800000
0!
0/
00
#820000
1!
1/
10
#840000
0!
0/
00
#860000
1!
1/
10
#880000
0!
0/
00
#900000
1!
1/
10
#920000
0!
0/
00
#940000
1!
1/
10
#960000
0!
0/
00
#980000
1!
1/
10
