week6/week6/simulation/qsim/week6.msim.vcd
$comment
	File created using the following command:
		vcd file week6.msim.vcd -direction
$end
$date
	Sat Oct 07 12:23:58 2023
$end
$version
	ModelSim Version 2020.1
$end
$timescale
	1ps
$end

$scope module keypad_SRAM4_vlg_vec_tst $end
$var reg 1 ! clk $end
$var reg 12 " keypad [11:0] $end
$var reg 1 # reset $end
$var wire 1 $ Dout [3] $end
$var wire 1 % Dout [2] $end
$var wire 1 & Dout [1] $end
$var wire 1 ' Dout [0] $end

$scope module i1 $end
$var wire 1 ( gnd $end
$var wire 1 ) vcc $end
$var wire 1 * unknown $end
$var tri1 1 + devclrn $end
$var tri1 1 , devpor $end
$var tri1 1 - devoe $end
$var wire 1 . ~QUARTUS_CREATED_GND~I_combout $end
$var wire 1 / clk~input_o $end
$var wire 1 0 clk~inputCLKENA0_outclk $end
$var wire 1 1 reset~input_o $end
$var wire 1 2 inst5|inst7|inst1|inst2~q $end
$var wire 1 3 keypad[3]~input_o $end
$var wire 1 4 keypad[7]~input_o $end
$var wire 1 5 keypad[9]~input_o $end
$var wire 1 6 keypad[5]~input_o $end
$var wire 1 7 keypad[1]~input_o $end
$var wire 1 8 inst2|inst12121~0_combout $end
$var wire 1 9 keypad[2]~input_o $end
$var wire 1 : keypad[8]~input_o $end
$var wire 1 ; keypad[6]~input_o $end
$var wire 1 < keypad[4]~input_o $end
$var wire 1 = keypad[0]~input_o $end
$var wire 1 > inst2|inst12121~1_combout $end
$var wire 1 ? inst3|inst7~0_combout $end
$var wire 1 @ inst3|inst3~combout $end
$var wire 1 A inst3|inst8~q $end
$var wire 1 B keypad[11]~input_o $end
$var wire 1 C inst|Selector3~0_combout $end
$var wire 1 D inst|fstate.state4~q $end
$var wire 1 E inst|Selector4~0_combout $end
$var wire 1 F inst|fstate.state5~q $end
$var wire 1 G inst|ce~0_combout $end
$var wire 1 H inst3|inst7~q $end
$var wire 1 I keypad[10]~input_o $end
$var wire 1 J inst|reg_fstate.state1~0_combout $end
$var wire 1 K inst|fstate.state1~q $end
$var wire 1 L inst|Selector1~0_combout $end
$var wire 1 M inst|Selector1~1_combout $end
$var wire 1 N inst|fstate.state2~q $end
$var wire 1 O inst|reg_fstate.state3~0_combout $end
$var wire 1 P inst|fstate.state3~q $end
$var wire 1 Q inst5|inst9|$00000|auto_generated|l1_w1_n0_mux_dataout~0_combout $end
$var wire 1 R inst2|inst7~0_combout $end
$var wire 1 S inst5|inst2|inst3|inst2~feeder_combout $end
$var wire 1 T inst5|inst14~0_combout $end
$var wire 1 U inst5|inst2|inst3|inst2~q $end
$var wire 1 V inst5|inst13~0_combout $end
$var wire 1 W inst5|inst3|inst3|inst2~q $end
$var wire 1 X inst5|inst5|inst3|inst2~feeder_combout $end
$var wire 1 Y inst5|inst11~0_combout $end
$var wire 1 Z inst5|inst5|inst3|inst2~q $end
$var wire 1 [ inst5|inst12~0_combout $end
$var wire 1 \ inst5|inst4|inst3|inst2~q $end
$var wire 1 ] inst5|inst7|inst|inst2~q $end
$var wire 1 ^ inst5|inst9|$00000|auto_generated|l1_w0_n0_mux_dataout~0_combout $end
$var wire 1 _ inst5|inst8|auto_generated|l2_w3_n0_mux_dataout~0_combout $end
$var wire 1 ` inst2|inst6~0_combout $end
$var wire 1 a inst5|inst3|inst2|inst2~q $end
$var wire 1 b inst5|inst2|inst2|inst2~feeder_combout $end
$var wire 1 c inst5|inst2|inst2|inst2~q $end
$var wire 1 d inst5|inst4|inst2|inst2~q $end
$var wire 1 e inst5|inst5|inst2|inst2~feeder_combout $end
$var wire 1 f inst5|inst5|inst2|inst2~q $end
$var wire 1 g inst5|inst8|auto_generated|l2_w2_n0_mux_dataout~0_combout $end
$var wire 1 h inst2|inst5~0_combout $end
$var wire 1 i inst5|inst2|inst1|inst2~feeder_combout $end
$var wire 1 j inst5|inst2|inst1|inst2~q $end
$var wire 1 k inst5|inst5|inst1|inst2~q $end
$var wire 1 l inst5|inst3|inst1|inst2~q $end
$var wire 1 m inst5|inst4|inst1|inst2~q $end
$var wire 1 n inst5|inst8|auto_generated|l2_w1_n0_mux_dataout~0_combout $end
$var wire 1 o inst2|inst4~0_combout $end
$var wire 1 p inst5|inst5|inst|inst2~feeder_combout $end
$var wire 1 q inst5|inst5|inst|inst2~q $end
$var wire 1 r inst5|inst2|inst|inst2~q $end
$var wire 1 s inst5|inst4|inst|inst2~q $end
$var wire 1 t inst5|inst3|inst|inst2~q $end
$var wire 1 u inst5|inst8|auto_generated|l2_w0_n0_mux_dataout~0_combout $end
$upscope $end
$upscope $end
$enddefinitions $end
#0
$dumpvars
0!
b0 "
1#
0'
0&
0%
0$
0(
1)
x*
1+
1,
1-
0.
0/
00
11
02
03
04
05
06
07
18
09
0:
0;
0<
0=
1>
1?
0@
0A
0B
0C
0D
0E
0F
0G
0H
0I
0J
0K
1L
0M
0N
0O
0P
0Q
0R
0S
0T
0U
0V
0W
0X
0Y
0Z
0[
0\
0]
0^
0_
0`
0a
0b
0c
0d
0e
0f
0g
0h
0i
0j
0k
0l
0m
0n
0o
0p
0q
0r
0s
0t
0u
$end
#10000
1!
1/
10
#20000
b10000000000 "
0!
1I
0/
00
0L
1J
1M
#30000
1!
1/
10
1N
1K
1L
#40000
0!
0/
00
#50000
b0 "
1!
0I
1/
10
#60000
b100000000 "
0!
1:
0/
00
1R
0>
1O
0M
1X
1S
#70000
1!
1/
10
1P
0N
1T
0L
1G
0O
1M
#80000
0!
0/
00
#90000
b0 "
1!
0:
1/
10
0R
1>
0X
0S
1U
0P
1N
1H
0T
1L
0G
1^
1@
0?
1_
1$
0_
0$
#100000
0!
0/
00
#110000
1!
1/
10
1]
#120000
b1000000 "
0!
1;
0/
00
1h
1`
0>
1O
0M
1e
1b
1i
#130000
1!
1/
10
1P
0N
1V
0L
1G
0O
1M
#140000
0!
0/
00
#150000
b0 "
1!
0;
1/
10
0h
0`
1>
0e
0b
0i
1l
1a
0P
1N
0H
1A
0V
1Q
1L
0G
0^
1?
1g
1n
1&
1%
0n
0g
0%
0&
#160000
b100000 "
0!
16
0/
00
1o
1`
08
1O
0M
1e
1b
1p
#170000
1!
1/
10
0]
1P
0N
12
1[
0L
1G
0O
1M
#180000
0!
0/
00
#190000
b0 "
1!
06
1/
10
0o
0`
18
0e
0b
0p
1s
1d
0P
1N
1H
0[
1L
0G
1^
0@
0?
1g
1u
1'
1%
0u
0g
0%
0'
#200000
b10000000 "
0!
14
0/
00
1o
1h
1`
08
1O
0M
1e
1b
1i
1p
#210000
1!
1/
10
1]
1P
0N
1Y
1G
0O
1C
#220000
0!
0/
00
#230000
b0 "
1!
04
1/
10
0o
0h
0`
18
0e
0b
0i
0p
1q
1k
1f
0P
0H
1D
0A
0Y
0Q
0G
0^
1?
1g
1n
1u
1'
1&
1%
0u
0n
0g
1_
1$
0%
0&
0'
#240000
0!
0/
00
#250000
1!
1/
10
0]
02
#260000
b100000000000 "
0!
1B
0/
00
1E
0C
#270000
1!
1/
10
1F
0D
1G
#280000
0!
0/
00
#290000
b0 "
1!
0B
1/
10
1H
1^
1@
0?
1n
1g
0_
0$
1%
1&
#300000
0!
0/
00
#310000
1!
1/
10
1]
0H
1A
1Q
0^
1?
1u
0n
0&
1'
#320000
0!
0/
00
#330000
1!
1/
10
0]
1H
12
1^
0J
0E
0@
0?
1n
1&
#340000
0!
0/
00
#350000
1!
1/
10
1]
0K
0H
0F
0A
0Q
0G
0^
1?
0u
0n
0g
1_
1$
0%
0&
0'
#360000
0!
0/
00
#370000
1!
1/
10
0]
02
#380000
0!
0/
00
#390000
1!
1/
10
#400000
0!
0/
00
#410000
1!
1/
10
#420000
0!
0/
00
#430000
1!
1/
10
#440000
0!
0/
00
#450000
1!
1/
10
#460000
0!
0/
00
#470000
1!
1/
10
#480000
0!
0/
00
#490000
1!
1/
10
#500000
0!
0/
00
#510000
1!
1/
10
#520000
0!
0/
00
#530000
1!
1/
10
#540000
0!
0/
00
#550000
1!
1/
10
#560000
0!
0/
00
#570000
1!
1/
10
#580000
0!
0/
00
#590000
1!
1/
10
#600000
0!
0/
00
#610000
1!
1/
10
#620000
0!
0/
00
#630000
1!
1/
10
#640000
0!
0/
00
#650000
1!
1/
10
#660000
0!
0/
00
#670000
1!
1/
10
#680000
0!
0/
00
#690000
1!
1/
10
#700000
0!
0/
00
#710000
1!
1/
10
#720000
0!
0/
00
#730000
1!
1/
10
#740000
0!
0/
00
#750000
1!
1/
10
#760000
0!
0/
00
#770000
1!
1/
10
#780000
0!
0/
00
#790000
1!
1/
10
#800000
0!
0/
00
#810000
1!
1/
10
#820000
0!
0/
00
#830000
1!
1/
10
#840000
0!
0/
00
#850000
1!
1/
10
#860000
0!
0/
00
#870000
1!
1/
10
#880000
0!
0/
00
#890000
1!
1/
10
#900000
0!
0/
00
#910000
1!
1/
10
#920000
0!
0/
00
#930000
1!
1/
10
#940000
0!
0/
00
#950000
1!
1/
10
#960000
0!
0/
00
#970000
1!
1/
10
#980000
0!
0/
00
#990000
1!
1/
10
