week2_work2/simulation/qsim/work2_3.msim.vcd
$comment
	File created using the following command:
		vcd file work2_3.msim.vcd -direction
$end
$date
	Tue Sep 12 19:40:49 2023
$end
$version
	ModelSim Version 2020.1
$end
$timescale
	1ps
$end

$scope module work2_3_vlg_vec_tst $end
$var reg 1 ! Eight $end
$var reg 1 " Eleven $end
$var reg 1 # Five $end
$var reg 1 $ Four $end
$var reg 1 % Nine $end
$var reg 1 & One $end
$var reg 1 ' Seven $end
$var reg 1 ( Six $end
$var reg 1 ) Ten $end
$var reg 1 * Three $end
$var reg 1 + Two $end
$var reg 1 , Zero $end
$var wire 1 - b_0 $end
$var wire 1 . b_1 $end
$var wire 1 / b_2 $end
$var wire 1 0 b_3 $end

$scope module i1 $end
$var wire 1 1 gnd $end
$var wire 1 2 vcc $end
$var wire 1 3 unknown $end
$var tri1 1 4 devclrn $end
$var tri1 1 5 devpor $end
$var tri1 1 6 devoe $end
$var wire 1 7 Zero~input_o $end
$var wire 1 8 ~QUARTUS_CREATED_GND~I_combout $end
$var wire 1 9 Eight~input_o $end
$var wire 1 : Ten~input_o $end
$var wire 1 ; Eleven~input_o $end
$var wire 1 < Nine~input_o $end
$var wire 1 = inst~combout $end
$var wire 1 > Five~input_o $end
$var wire 1 ? Four~input_o $end
$var wire 1 @ Six~input_o $end
$var wire 1 A Seven~input_o $end
$var wire 1 B inst1~combout $end
$var wire 1 C Two~input_o $end
$var wire 1 D Three~input_o $end
$var wire 1 E inst2~combout $end
$var wire 1 F One~input_o $end
$var wire 1 G inst3~combout $end
$upscope $end
$upscope $end
$enddefinitions $end
#0
$dumpvars
0!
0"
0#
0$
0%
0&
0'
0(
0)
0*
0+
1,
0-
0.
0/
00
01
12
x3
14
15
16
17
08
09
0:
0;
0<
0=
0>
0?
0@
0A
0B
0C
0D
0E
0F
0G
$end
#30000
0,
1&
07
1F
1G
1-
#60000
0&
0F
0G
0-
#70000
1+
1C
1E
1.
#110000
0+
0C
0E
0.
#120000
1*
1D
1G
1E
1.
1-
#160000
0*
0D
0G
0E
0.
0-
#170000
1$
1?
1B
1/
#210000
0$
0?
0B
0/
#220000
1#
1>
1G
1B
1/
1-
#260000
0#
0>
0G
0B
0/
0-
#270000
1(
1@
1E
1B
1/
1.
#310000
0(
0@
0E
0B
0/
0.
#320000
1'
1A
1G
1E
1B
1/
1.
1-
#360000
0'
0A
0G
0E
0B
0/
0.
0-
#370000
1!
19
1=
10
#410000
0!
09
0=
00
#430000
1%
1<
1G
1=
10
1-
#470000
0%
0<
0G
0=
00
0-
#480000
1)
1:
1E
1=
10
1.
#530000
0)
0:
0E
0=
00
0.
#550000
1"
1;
1G
1E
1=
10
1.
1-
#590000
0"
0;
0G
0E
0=
00
0.
0-
